\relax 
\abx@aux@refcontext{none/global//global/global}
\@writefile{toc}{\boolfalse {citerequest}\boolfalse {citetracker}\boolfalse {pagetracker}\boolfalse {backtracker}\relax }
\@writefile{lof}{\boolfalse {citerequest}\boolfalse {citetracker}\boolfalse {pagetracker}\boolfalse {backtracker}\relax }
\@writefile{lot}{\boolfalse {citerequest}\boolfalse {citetracker}\boolfalse {pagetracker}\boolfalse {backtracker}\relax }
\abx@aux@cite{mtexplain}
\abx@aux@segm{0}{0}{mtexplain}
\abx@aux@segm{0}{0}{mtexplain}
\abx@aux@cite{NCRNA}
\abx@aux@segm{0}{0}{NCRNA}
\abx@aux@cite{mitochondrial_disease}
\abx@aux@segm{0}{0}{mitochondrial_disease}
\abx@aux@cite{Mallory2015}
\abx@aux@segm{0}{0}{Mallory2015}
\abx@aux@cite{gtex}
\abx@aux@segm{0}{0}{gtex}
\abx@aux@cite{OCR}
\abx@aux@segm{0}{0}{OCR}
\abx@aux@cite{compartments}
\abx@aux@segm{0}{0}{compartments}
\abx@aux@cite{mc}
\abx@aux@segm{0}{0}{mc}
\abx@aux@segm{0}{0}{mc}
\abx@aux@cite{GO}
\abx@aux@segm{0}{0}{GO}
\abx@aux@segm{0}{0}{GO}
\abx@aux@cite{cellularcomponent}
\abx@aux@segm{0}{0}{cellularcomponent}
\abx@aux@cite{genenames}
\abx@aux@segm{0}{0}{genenames}
\abx@aux@cite{respiratory}
\abx@aux@segm{0}{0}{respiratory}
\abx@aux@segm{0}{0}{respiratory}
\abx@aux@cite{murphy2012machine}
\abx@aux@segm{0}{0}{murphy2012machine}
\abx@aux@segm{0}{0}{murphy2012machine}
\@writefile{toc}{\defcounter {refsection}{0}\relax }\@writefile{toc}{\contentsline {section}{\numberline {1}Introduction}{4}}
\@writefile{toc}{\defcounter {refsection}{0}\relax }\@writefile{toc}{\contentsline {section}{\numberline {2}Methods}{5}}
\@writefile{lof}{\defcounter {refsection}{0}\relax }\@writefile{lof}{\contentsline {figure}{\numberline {1}{\ignorespaces Barplot representing the number of available samples per tissue}}{5}}
\newlabel{barplot}{{1}{5}}
\abx@aux@cite{glmnet}
\abx@aux@segm{0}{0}{glmnet}
\abx@aux@cite{R_env}
\abx@aux@segm{0}{0}{R_env}
\abx@aux@segm{0}{0}{glmnet}
\@writefile{lof}{\defcounter {refsection}{0}\relax }\@writefile{lof}{\contentsline {figure}{\numberline {2}{\ignorespaces Heatmap of correlation between 2000 Genes and 1000 Samples}}{6}}
\newlabel{heatmap}{{2}{6}}
\@writefile{toc}{\defcounter {refsection}{0}\relax }\@writefile{toc}{\contentsline {subsection}{\numberline {2.1}Binomial}{6}}
\abx@aux@cite{multinom}
\abx@aux@segm{0}{0}{multinom}
\abx@aux@segm{0}{0}{murphy2012machine}
\@writefile{toc}{\defcounter {refsection}{0}\relax }\@writefile{toc}{\contentsline {subsection}{\numberline {2.2}Multinomial}{7}}
\abx@aux@cite{multilabel_overview}
\abx@aux@segm{0}{0}{multilabel_overview}
\abx@aux@cite{multilabel_mlr}
\abx@aux@segm{0}{0}{multilabel_mlr}
\@writefile{lof}{\defcounter {refsection}{0}\relax }\@writefile{lof}{\contentsline {figure}{\numberline {3}{\ignorespaces Venn Diagram of classes' intersection of Mito Carta, Ribosomal and Plasma Membrane}}{8}}
\newlabel{venn}{{3}{8}}
\@writefile{toc}{\defcounter {refsection}{0}\relax }\@writefile{toc}{\contentsline {subsection}{\numberline {2.3}Multilabel}{8}}
\abx@aux@cite{precision_recall}
\abx@aux@segm{0}{0}{precision_recall}
\abx@aux@cite{DataMining}
\abx@aux@segm{0}{0}{DataMining}
\@writefile{toc}{\defcounter {refsection}{0}\relax }\@writefile{toc}{\contentsline {section}{\numberline {3}Results}{9}}
\@writefile{toc}{\defcounter {refsection}{0}\relax }\@writefile{toc}{\contentsline {subsection}{\numberline {3.1}Methods evaluation}{9}}
\@writefile{lof}{\defcounter {refsection}{0}\relax }\@writefile{lof}{\contentsline {figure}{\numberline {4}{\ignorespaces Precision-Recall curve comparing four binomial problems}}{9}}
\newlabel{binomial}{{4}{9}}
\abx@aux@segm{0}{0}{DataMining}
\@writefile{lof}{\defcounter {refsection}{0}\relax }\@writefile{lof}{\contentsline {figure}{\numberline {5}{\ignorespaces Precision-Recall curve showing the Mito Carta result of the multinomial model}}{10}}
\newlabel{multinomial}{{5}{10}}
\@writefile{lof}{\defcounter {refsection}{0}\relax }\@writefile{lof}{\contentsline {figure}{\numberline {6}{\ignorespaces Precision-Recall curve showing the Mitochondrion GO Slim result of the multilabel model}}{10}}
\newlabel{multilabel}{{6}{10}}
\abx@aux@cite{appliedmodeling}
\abx@aux@segm{0}{0}{appliedmodeling}
\abx@aux@cite{LINC00116}
\abx@aux@segm{0}{0}{LINC00116}
\@writefile{toc}{\defcounter {refsection}{0}\relax }\@writefile{toc}{\contentsline {subsection}{\numberline {3.2}Tables and Statistics}{11}}
\@writefile{lot}{\defcounter {refsection}{0}\relax }\@writefile{lot}{\contentsline {table}{\numberline {1}{\ignorespaces Confusion Matrix for Mito Carta}}{11}}
\newlabel{CM}{{1}{11}}
\@writefile{lot}{\defcounter {refsection}{0}\relax }\@writefile{lot}{\contentsline {table}{\numberline {2}{\ignorespaces Number of Mito Carta prediction}}{11}}
\newlabel{pred}{{2}{11}}
\@writefile{lof}{\defcounter {refsection}{0}\relax }\@writefile{lof}{\contentsline {figure}{\numberline {7}{\ignorespaces Prediction recall values and cutoffs of the Binomial model for Mito Carta}}{12}}
\newlabel{cutoff}{{7}{12}}
\@writefile{lof}{\defcounter {refsection}{0}\relax }\@writefile{lof}{\contentsline {figure}{\numberline {8}{\ignorespaces Prediction table of the Binomial model for Mito Carta}}{12}}
\newlabel{LINC00}{{8}{12}}
\@writefile{toc}{\defcounter {refsection}{0}\relax }\@writefile{toc}{\contentsline {subsection}{\numberline {3.3}Performance improvement and additional data}{12}}
\@writefile{lof}{\defcounter {refsection}{0}\relax }\@writefile{lof}{\contentsline {figure}{\numberline {9}{\ignorespaces Precision-Recall curve showing the Mito Carta result including different data sources}}{13}}
\newlabel{PR_OCR}{{9}{13}}
\@writefile{toc}{\defcounter {refsection}{0}\relax }\@writefile{toc}{\contentsline {section}{\numberline {4}Conclusion}{13}}
\abx@aux@refcontextdefaultsdone
\abx@aux@defaultrefcontext{0}{mtexplain}{none/global//global/global}
\abx@aux@defaultrefcontext{0}{NCRNA}{none/global//global/global}
\abx@aux@defaultrefcontext{0}{mitochondrial_disease}{none/global//global/global}
\abx@aux@defaultrefcontext{0}{Mallory2015}{none/global//global/global}
\abx@aux@defaultrefcontext{0}{gtex}{none/global//global/global}
\abx@aux@defaultrefcontext{0}{OCR}{none/global//global/global}
\abx@aux@defaultrefcontext{0}{compartments}{none/global//global/global}
\abx@aux@defaultrefcontext{0}{mc}{none/global//global/global}
\abx@aux@defaultrefcontext{0}{GO}{none/global//global/global}
\abx@aux@defaultrefcontext{0}{cellularcomponent}{none/global//global/global}
\abx@aux@defaultrefcontext{0}{genenames}{none/global//global/global}
\abx@aux@defaultrefcontext{0}{respiratory}{none/global//global/global}
\abx@aux@defaultrefcontext{0}{murphy2012machine}{none/global//global/global}
\abx@aux@defaultrefcontext{0}{glmnet}{none/global//global/global}
\abx@aux@defaultrefcontext{0}{R_env}{none/global//global/global}
\abx@aux@defaultrefcontext{0}{multinom}{none/global//global/global}
\abx@aux@defaultrefcontext{0}{multilabel_overview}{none/global//global/global}
\abx@aux@defaultrefcontext{0}{multilabel_mlr}{none/global//global/global}
\abx@aux@defaultrefcontext{0}{precision_recall}{none/global//global/global}
\abx@aux@defaultrefcontext{0}{DataMining}{none/global//global/global}
\abx@aux@defaultrefcontext{0}{appliedmodeling}{none/global//global/global}
\abx@aux@defaultrefcontext{0}{LINC00116}{none/global//global/global}
