gene_name,y,prob.y
A4GALT,FALSE,0.0111184499316092
AAAS,FALSE,0.170181596619254
ABCA8,FALSE,0.00440176451332589
ABCB7,TRUE,0.334472736603218
ABCC1,FALSE,0.0174700224452146
ABCF3,FALSE,0.233393052987166
ABHD10,TRUE,0.295515214507338
ABHD12,FALSE,0.0361119429316393
ABHD17A,FALSE,0.0264842029718603
ABHD4,FALSE,0.0335623309277111
ABLIM3,FALSE,0.0186763081793917
ABTB1,FALSE,0.018368413376737
ACAD10,TRUE,0.404607949334534
ACAD8,TRUE,0.303981253761422
ACAD9,TRUE,0.243264260147837
ACBD4,FALSE,0.10218063963891
ACBD5,FALSE,0.234069949975899
ACOX1,TRUE,0.319687597126197
ACP2,FALSE,0.165452831390877
ACSF3,TRUE,0.2327122577492
ACSL3,FALSE,0.10061668305711
ACSS2,FALSE,0.7813731353325
ACTB,FALSE,0.0125601284793039
ACTG2,FALSE,0.00433334701647846
ACTN1,FALSE,0.00294980915820296
ACY1,FALSE,0.731543282528756
ACYP1,FALSE,0.115554025643429
ADA,FALSE,0.0542883594198024
ADAM12,FALSE,0.00132974675509912
ADAM17,FALSE,0.00341776808546375
ADAMTS7,FALSE,0.0190737806287147
ADAMTSL5,FALSE,0.0308915024648875
ADARB1,FALSE,0.00252601978369725
ADCY6,FALSE,0.153889515292128
ADCY9,FALSE,0.0105841733504484
ADIPOR1,FALSE,0.0445682760837201
ADIPOR2,FALSE,0.161303270898027
ADORA2B,FALSE,0.00541356988517141
ADRA1D,FALSE,0.000811694198299143
ADRA2A,FALSE,0.000525015329059421
ADRB2,FALSE,0.00831837826143643
ADRM1,FALSE,0.108201300261274
AFF2,FALSE,2.80623797932205e-05
AFF4,FALSE,0.0105155562456791
AFMID,FALSE,0.0966285678157072
AGAP4,FALSE,0.0122897420993564
AGAP5,FALSE,0.0699387969890895
AGAP9,FALSE,0.0448021103243341
AGBL5,FALSE,0.0408259830407483
AGK,TRUE,0.151621299532633
AGPAT4,FALSE,0.00160050975940383
AHCY,FALSE,0.433321816545321
AHRR,FALSE,0.00106650522204703
AIDA,FALSE,0.0215321464879564
AIFM2,TRUE,0.51418055315431
AIG1,FALSE,0.226799670904142
AIMP1,FALSE,0.132462414516499
AK1,FALSE,0.324013952165607
AK2,TRUE,0.283869357591568
AK3,TRUE,0.628396065103287
AKAP13,FALSE,0.0213499335378304
AKAP7,FALSE,0.209280386022945
AKNA,FALSE,0.00369104790900204
ALAD,FALSE,0.283395957179575
ALDH18A1,TRUE,0.0439025302358599
ALDH1A1,FALSE,0.0166676631064548
ALG10,FALSE,0.0417548900090941
ALG14,FALSE,0.310739035273531
ALG5,FALSE,0.0740277196304751
ALG9,FALSE,0.0696170294906702
ALKBH4,FALSE,0.0772861295883964
ALPK2,FALSE,0.280793083706314
AMER1,FALSE,0.0371889290762877
AMOT,FALSE,0.00578454431391262
ANAPC1,FALSE,0.0642106482815358
ANGPTL1,FALSE,0.0102635082902754
ANKH,FALSE,0.0324107585127763
ANKRD1,FALSE,0.000928603929107425
ANKRD10,FALSE,0.0255424419916655
ANKRD11,FALSE,0.0150636570848694
ANKRD12,FALSE,0.0146608045022808
ANKRD17,FALSE,0.0504569373589742
ANKRD28,FALSE,0.0378329059916521
ANKRD29,FALSE,0.0134607014408952
ANKS6,FALSE,0.0165639062927661
ANO4,FALSE,0.0326964276795652
ANXA2,FALSE,0.00742894628172598
AOX1,FALSE,0.0192981402278527
AP1AR,FALSE,0.0766676296857008
AP1S3,FALSE,0.00655929705090908
AP2A1,FALSE,0.077635986744174
AP2S1,FALSE,0.200305971108925
AP3D1,FALSE,0.054082377071872
AP3M1,FALSE,0.10010841095168
AP3M2,FALSE,0.0394136723305687
AP3S1,FALSE,0.0223014654299461
AP4B1,FALSE,0.0473317494902395
AP4S1,FALSE,0.0604013545895266
APBB1IP,FALSE,0.00957218084371082
APC,FALSE,0.0243283937861848
APCDD1,FALSE,0.00153939667901838
APLP1,FALSE,0.00365346256852479
APOL3,FALSE,0.0118609786082864
APOLD1,FALSE,0.0302400369328363
APPL1,FALSE,0.0290279621891718
APPL2,FALSE,0.0443797319471728
AREL1,FALSE,0.0456205136517119
ARF4,FALSE,0.0372583148576946
ARFGAP3,FALSE,0.0329818257717745
ARFGEF1,FALSE,0.026739002048482
ARFGEF2,FALSE,0.0779722736852021
ARHGAP12,FALSE,0.0244177642212829
ARHGAP17,FALSE,0.0478537693119855
ARHGAP32,FALSE,0.00879531165272987
ARHGAP5,FALSE,0.0126889783861695
ARHGEF1,FALSE,0.00940115114156423
ARHGEF10L,FALSE,0.0429245799026126
ARHGEF11,FALSE,0.0142688057334394
ARHGEF12,FALSE,0.0202158880795002
ARHGEF3,FALSE,0.0111715738067174
ARHGEF35,FALSE,0.0342909363351769
ARHGEF5,FALSE,0.015590298359772
ARID1B,FALSE,0.0155039842764141
ARL16,FALSE,0.115815351328747
ARL17B,FALSE,0.0597000935373621
ARL6,FALSE,0.0292405164512445
ARMC10,TRUE,0.0601834858201465
ARMC8,FALSE,0.0600471179230281
ARMCX1,FALSE,0.0225676308127166
ARMCX2,FALSE,0.0139226894767236
ARNTL2,FALSE,0.0116759560584186
ARPC3,FALSE,0.0722376579085981
ARPC4,FALSE,0.0388176546570201
ARRDC3,FALSE,0.00502361811303712
ARSD,FALSE,0.071756499938988
ARSK,FALSE,0.0319387927741331
ASB1,FALSE,0.0525734296021882
ASB7,FALSE,0.0348877808522395
ASCC1,FALSE,0.0940626816636782
ASF1A,FALSE,0.176348943898795
ASH2L,FALSE,0.0878904209675573
ASPHD1,FALSE,0.00233892918752911
ASXL2,FALSE,0.0222109052505445
ATAD1,TRUE,0.147430095015934
ATAD2,FALSE,0.0248837035229451
ATAD3A,TRUE,0.201957396679701
ATAT1,FALSE,0.0563255115148615
ATF4,FALSE,0.0282868263895878
ATF6,FALSE,0.0260813054938674
ATF7,FALSE,0.0094923800424858
ATG16L2,FALSE,0.0111273350746305
ATG5,FALSE,0.0849507034496412
ATG7,FALSE,0.0432337463425951
ATN1,FALSE,0.0183243193911244
ATOH8,FALSE,0.00551964436275583
ATOX1,FALSE,0.186987254108318
ATP11B,FALSE,0.0141538662976896
ATP6V0D1,FALSE,0.17223826982828
ATP6V1E2,FALSE,0.0698686881291508
ATP7A,FALSE,0.0115195132898196
ATP8B2,FALSE,0.000926413243770432
ATRAID,FALSE,0.163149479800393
ATRIP,FALSE,0.0418549674886046
AUH,TRUE,0.49064517987608
AUTS2,FALSE,0.0111672816390336
AVPI1,FALSE,0.0566254657986112
AZI2,FALSE,0.0688318220511403
B3GALNT1,FALSE,0.0170888016512951
B3GALT2,FALSE,0.0139226175042594
B4GALT1,FALSE,0.0146003323852263
B9D2,FALSE,0.037832274081191
BACE1,FALSE,0.0059961188042812
BAG6,FALSE,0.0701728353708099
BAZ1A,FALSE,0.00592859772146138
BBC3,FALSE,0.0118202346228208
BBS10,FALSE,0.036322827398451
BBS4,FALSE,0.123369745467094
BBS7,FALSE,0.0137374561582644
BCAP29,FALSE,0.0461302401322295
BCAT2,TRUE,0.615259247835359
BCKDHB,TRUE,0.728703657647902
BCKDK,TRUE,0.374599453195332
BCL10,FALSE,0.018175030341885
BCL2L1,TRUE,0.0215527955694974
BCL6,FALSE,0.00647570472490736
BEND7,FALSE,0.0119430784699532
BEX1,FALSE,0.000977366942840902
BFAR,FALSE,0.0664445657002231
BHLHE41,FALSE,0.00858731666095847
BIRC3,FALSE,0.00651552967535596
BIRC6,FALSE,0.0188458340962827
BLZF1,FALSE,0.0350014339069786
BMP4,FALSE,0.00573429028014894
BMPR2,FALSE,0.0114529231632819
BMS1,FALSE,0.0845341244169557
BNC2,FALSE,0.000935260307055163
BPHL,TRUE,0.67507285159297
BRD4,FALSE,0.0124732720395522
BRD7,FALSE,0.0481380517447778
BRINP1,FALSE,0.000725838134617983
BRK1,FALSE,0.0840474220405392
BRPF3,FALSE,0.0210569357308277
BTAF1,FALSE,0.0144142080743708
BTBD11,FALSE,0.00169564613733331
BTBD2,FALSE,0.0358406595112437
BTF3,FALSE,0.119815376305121
BTG2,FALSE,0.0159450031185135
BTN3A3,FALSE,0.0176470457439696
BUD31,FALSE,0.0756364203201906
BYSL,FALSE,0.188136815940206
C10ORF25,FALSE,0.00556649861283588
C11ORF54,FALSE,0.304206601706341
C11ORF58,FALSE,0.0534563528840388
C11ORF68,FALSE,0.0322355950210934
C11ORF74,FALSE,0.199531604246755
C15ORF40,TRUE,0.179945219682182
C15ORF54,FALSE,0.0040494445467797
C16ORF72,FALSE,0.0265718517326218
C16ORF74,FALSE,0.00646689140987782
C16ORF86,FALSE,0.0349201277625274
C18ORF21,FALSE,0.178234270010038
C19ORF44,FALSE,0.0153493784877461
C1D,FALSE,0.177109077651157
C1GALT1,FALSE,0.0310695016481743
C1ORF109,FALSE,0.0423002234338523
C1ORF159,FALSE,0.06248627919388
C1ORF174,FALSE,0.0599772811632781
C1ORF198,FALSE,0.0015736752646285
C1ORF53,FALSE,0.877683301369478
C1ORF74,FALSE,0.171226012206161
C1QBP,TRUE,0.714699194275366
C1S,FALSE,0.00307899975229196
C20ORF96,FALSE,0.0342415051055912
C21ORF58,FALSE,0.0527446609561621
C21ORF91,FALSE,0.00499056183143514
C22ORF23,FALSE,0.00494179199164282
C2ORF27A,FALSE,0.00242701752971653
C2ORF76,FALSE,0.0621426617731761
C3ORF18,FALSE,0.138016076939999
C5ORF30,FALSE,0.0660035573630795
C6ORF136,TRUE,0.433107828429977
C6ORF226,FALSE,0.166673589001586
C6ORF47,FALSE,0.0741040657168009
C6ORF48,FALSE,0.0150891628281759
C6ORF62,FALSE,0.0325638612191147
C7ORF26,FALSE,0.0191675145167869
C7ORF50,FALSE,0.108394053318647
C8ORF33,FALSE,0.110807217745288
C8ORF82,TRUE,0.457132766858546
C9ORF116,FALSE,0.0946628366029078
C9ORF64,FALSE,0.0714724169793014
CA12,FALSE,0.0133883677353838
CA13,FALSE,0.0212769619610219
CAB39,FALSE,0.0548144359700224
CABLES1,FALSE,0.0273113757860678
CACTIN,FALSE,0.0283376076213549
CALCOCO1,FALSE,0.0294479167950639
CAMK1D,FALSE,0.000650574147096233
CAMK2G,FALSE,0.019731571454515
CAMSAP2,FALSE,0.00566836171148775
CAMTA1,FALSE,0.0851382487173898
CAPN1,FALSE,0.053858822694633
CAPRIN1,FALSE,0.0434846748112846
CAPZB,FALSE,0.0744541080612527
CARD16,FALSE,0.0123880479729689
CASP10,FALSE,0.0102602740617297
CASP8,TRUE,0.016086672365991
CASP9,FALSE,0.0770296498900681
CBFB,FALSE,0.0105608773802321
CBL,FALSE,0.00250832993965712
CBLN3,FALSE,0.00902111806358632
CBR1,FALSE,0.218298385278967
CBR3,TRUE,0.00437885371652139
CBWD2,FALSE,0.153037977451526
CBWD5,FALSE,0.143537901949743
CBX6,FALSE,0.00764474717034832
CBY1,FALSE,0.10734198147276
CC2D2A,FALSE,0.0116132967235227
CCAR1,FALSE,0.0418858511471797
CCDC107,FALSE,0.0990322678846926
CCDC12,FALSE,0.0783405105278153
CCDC134,FALSE,0.0821993903876435
CCDC136,FALSE,0.00338060485440452
CCDC137,FALSE,0.0567369725075524
CCDC14,FALSE,0.0274434882454188
CCDC8,FALSE,0.0045209588981071
CCDC85A,FALSE,0.00113209397059373
CCDC86,FALSE,0.10565144867901
CCDC91,FALSE,0.175514838314148
CCDC93,FALSE,0.0501399998720806
CCM2,FALSE,0.0766533406956204
CCNA2,FALSE,0.00449817809703719
CCNC,FALSE,0.133105725216966
CCNI,FALSE,0.0206087342005312
CCNT2,FALSE,0.0245003917118622
CCT2,FALSE,0.13028392303472
CCT6A,FALSE,0.133928814206384
CCT8,FALSE,0.187935264540568
CD2AP,FALSE,0.0292340180025913
CD36,FALSE,0.030375538902979
CD40,FALSE,0.0117515072159603
CD44,FALSE,0.000247874804060229
CD47,FALSE,0.0105669743506982
CD70,FALSE,0.000666410579459539
CD74,FALSE,0.00609929163256326
CD82,FALSE,0.0139521562173202
CDC26,FALSE,0.143105912139802
CDC42EP4,FALSE,0.0150994534285187
CDC42SE1,FALSE,0.0123565434875477
CDCA3,FALSE,0.0460688609786722
CDCA7L,FALSE,0.0106132185254938
CDCA8,FALSE,0.0124556278957142
CDIP1,FALSE,0.068409556590788
CDK2AP2,FALSE,0.105278913464173
CDK9,FALSE,0.0221109888389143
CDKL5,FALSE,0.000802032281812778
CDKN1B,FALSE,0.0169060345266417
CDKN2A,FALSE,0.0134615978827421
CDKN2AIPNL,FALSE,0.269184392472149
CDKN2B,FALSE,0.0109798268282821
CDKN2D,FALSE,0.0106307499998364
CDNF,FALSE,0.288721278907068
CDO1,FALSE,0.00771913855169603
CDT1,FALSE,0.0165919565792508
CEBPB,FALSE,0.0144267266543392
CEBPG,FALSE,0.0398968463627173
CELF2,FALSE,0.00674017344719069
CENPB,FALSE,0.0260500428217161
CENPF,FALSE,0.0169583625085214
CENPI,FALSE,0.0383812591435686
CENPL,FALSE,0.0278443292273881
CENPQ,FALSE,0.116679817816289
CENPT,FALSE,0.0276734414666503
CEP128,FALSE,0.00826677359986234
CEP19,FALSE,0.0092218707767832
CEP250,FALSE,0.0143625416615432
CEP55,FALSE,0.00832726779651508
CEP57,FALSE,0.0277728466281492
CEP57L1,FALSE,0.0578197969162932
CEP70,FALSE,0.109069593738094
CEP85L,FALSE,0.0228806772277269
CERCAM,FALSE,0.000920862037726466
CERS5,FALSE,0.0125563503942836
CETN3,FALSE,0.100818266291638
CFD,FALSE,0.00120715019761022
CFH,FALSE,0.00235989842929713
CGGBP1,FALSE,0.025140111681041
CGNL1,FALSE,0.00229241012240489
CHAC1,FALSE,0.00489404166625794
CHAC2,FALSE,0.66343176488096
CHAF1B,FALSE,0.0178971600935098
CHCHD1,TRUE,0.521426294920033
CHCHD10,TRUE,0.981377006628871
CHD1,FALSE,0.00779532162991624
CHD4,FALSE,0.0319701968547605
CHFR,FALSE,0.0211318335900714
CHID1,FALSE,0.081018331181117
CHMP2A,FALSE,0.176074165334945
CHMP3,FALSE,0.0610902881451303
CHMP4B,FALSE,0.0798004114608604
CHP1,FALSE,0.253528954728986
CHRDL1,FALSE,0.00029910347425062
CHST15,FALSE,0.00046488308131426
CHST3,FALSE,0.00885534369147859
CHSY1,FALSE,0.00534356005865877
CHURC1,FALSE,0.0747576258822475
CIAPIN1,FALSE,0.209075041727764
CIR1,FALSE,0.0332754662489891
CISD1,TRUE,0.744683224512481
CIT,FALSE,0.0123679170508822
CITED4,FALSE,0.0185361890811737
CKS2,FALSE,0.0748448555143453
CLCF1,FALSE,0.00368589303026364
CLCN4,FALSE,0.0152499367402326
CLDN11,FALSE,0.000405014348800425
CLDN12,FALSE,0.0960096869725709
CLEC2A,FALSE,0.00302986298883408
CLIP2,FALSE,0.00530957663197593
CLIP3,FALSE,0.000476209792673248
CLK2,FALSE,0.0419242767630337
CLOCK,FALSE,0.026827843133285
CLSTN1,FALSE,0.00438296271710203
CLTC,FALSE,0.0795814887526264
CLU,FALSE,0.0010728247032932
CMBL,FALSE,0.909784106260256
CMKLR1,FALSE,0.000527091525874971
CMPK1,FALSE,0.0877057768116618
CNIH3,FALSE,0.00721301816073306
CNIH4,FALSE,0.0940191797173208
CNNM3,FALSE,0.0165008347104062
CNOT1,FALSE,0.0226984658072998
CNOT11,FALSE,0.128100206432038
CNOT8,FALSE,0.0152479067802785
CNPPD1,FALSE,0.111798000503685
CNTROB,FALSE,0.014229550888956
COA3,TRUE,0.625873062607783
COA4,TRUE,0.557967039938486
COA6,TRUE,0.733342874944831
COG4,FALSE,0.0876591733256906
COL5A1,FALSE,0.0019914251089434
COL8A1,FALSE,0.000345023725208856
COMMD4,FALSE,0.171125179832064
COMMD5,FALSE,0.049628197342879
COPE,FALSE,0.158100829515311
COPRS,FALSE,0.088804278447
COPS2,FALSE,0.0657406921922772
COPS7A,FALSE,0.245953364657783
COPS7B,FALSE,0.0591458160142403
COQ5,TRUE,0.687747024298941
COX20,TRUE,0.118845975472733
CPEB1,FALSE,0.000351569062971108
CPNE3,FALSE,0.0675388589872019
CPS1,TRUE,0.03242460806632
CPSF2,FALSE,0.0669325647551504
CRABP2,FALSE,8.23432974073867e-05
CREBBP,FALSE,0.00713135314025903
CRELD2,FALSE,0.0343216484819727
CREM,FALSE,0.0547890216354859
CRLS1,TRUE,0.570329117619297
CRTAP,FALSE,0.0171776118671329
CRY2,FALSE,0.0555943939526656
CS,TRUE,0.790262387463143
CSNK1E,FALSE,0.0187722785289337
CSNK2A1,FALSE,0.142026289969209
CSNK2A3,FALSE,0.113981562723764
CSRP1,FALSE,0.0025753854335573
CST3,FALSE,0.0323518719017218
CSTF1,FALSE,0.118225588437368
CTBS,FALSE,0.0274945114543671
CTDNEP1,FALSE,0.066965960407113
CTDP1,FALSE,0.0253501549524792
CTDSPL,FALSE,0.0152762705375712
CTDSPL2,FALSE,0.0075130370860627
CTHRC1,FALSE,0.000245800305733076
CTNNB1,FALSE,0.0137795939590112
CUL4B,FALSE,0.0183502698714809
CUX1,FALSE,0.0333470475499701
CWC15,FALSE,0.155788724025218
CWC22,FALSE,0.0254567615319999
CXCL12,FALSE,0.0174520356826192
CXCL14,FALSE,0.00515296745206786
CXORF40B,FALSE,0.0907088465453614
CXORF57,FALSE,0.019900812784649
CYB5R1,FALSE,0.204447525706419
CYB5R4,FALSE,0.0340384192486371
CYP1B1,FALSE,0.000994261581957343
CYS1,FALSE,0.00384840060276436
DAAM1,FALSE,0.017238537209093
DACT3,FALSE,0.00166164298035349
DAG1,FALSE,0.0382605818232236
DAP3,TRUE,0.311497038465017
DARS,FALSE,0.14424618477316
DAXX,FALSE,0.0167227070281859
DBF4B,FALSE,0.0470444823166084
DBI,TRUE,0.585550748608263
DCAF10,FALSE,0.075186680340773
DCAF15,FALSE,0.0164469794170837
DCAF6,FALSE,0.346088520891034
DCLRE1A,FALSE,0.142876771073749
DCLRE1C,FALSE,0.0116328974542049
DCUN1D4,FALSE,0.0576722680066542
DCUN1D5,FALSE,0.232858869322745
DDAH2,FALSE,0.00388612765123133
DDB1,FALSE,0.121918771500006
DDR1,FALSE,0.0102122633282318
DDX1,FALSE,0.224714555635002
DDX17,FALSE,0.0160537225555498
DDX18,FALSE,0.0268134110479017
DDX20,FALSE,0.0318760232872403
DDX39A,FALSE,0.0341731372161678
DDX3X,FALSE,0.0276973212754974
DENND5A,FALSE,0.00748728417542829
DENND5B,FALSE,0.0593171102626292
DERA,FALSE,0.179218066879999
DESI2,FALSE,0.0216485616999471
DGAT1,FALSE,0.299916693880412
DGCR6L,FALSE,0.122809286832475
DGKQ,FALSE,0.0266803358395225
DHCR24,TRUE,0.165003156718457
DHODH,TRUE,0.434121984112379
DHRS13,FALSE,0.0189723526429635
DHRS3,FALSE,0.0794271022233846
DHX33,FALSE,0.0788091385438698
DHX34,FALSE,0.0158524658272001
DHX57,FALSE,0.053128062182073
DHX58,FALSE,0.0635233989426709
DIRAS3,FALSE,0.0333788724277803
DISP1,FALSE,0.00669089154868724
DISP2,FALSE,0.0024341833818245
DIXDC1,FALSE,0.0116092318609442
DLAT,TRUE,0.908318366596492
DLG5,FALSE,0.0165831168519776
DLX2,FALSE,0.00140131036362683
DMPK,TRUE,0.0641285410012487
DMXL1,FALSE,0.0212750717885409
DNAJB1,FALSE,0.00465339678796339
DNAJB6,FALSE,0.0429670415086822
DNAJC1,FALSE,0.0298625816715911
DNAJC18,FALSE,0.00836826892070999
DNAJC19,TRUE,0.649732793971379
DNAJC3,FALSE,0.0150107397417179
DNAJC5,FALSE,0.0429747620608581
DNAL4,FALSE,0.0387935207057374
DNMBP,FALSE,0.0344135752760823
DOLPP1,FALSE,0.103558918728765
DPAGT1,FALSE,0.146606337066131
DPF3,FALSE,0.575114696002551
DPH1,FALSE,0.118426116039044
DPY30,FALSE,0.150472817819702
DPYD,FALSE,0.00471066617778283
DPYSL4,FALSE,0.00476695264597913
DRG1,FALSE,0.165283173761008
DRG2,FALSE,0.0722667584767381
DSCC1,FALSE,0.132738681512984
DTD1,FALSE,0.0948831745538882
DTX3,FALSE,0.00952585286630396
DTX3L,FALSE,0.0298148072367803
DUS1L,FALSE,0.156010061043847
DUSP23,FALSE,0.130916410910312
DUSP28,FALSE,0.232298855161109
DUSP3,FALSE,0.128646498391669
DUSP8,FALSE,0.00125754602082809
DVL2,FALSE,0.0218268937007225
DYNC1H1,FALSE,0.0281497399134917
DYRK1A,FALSE,0.0220295750327686
DYRK4,FALSE,0.0831107781991858
E2F6,FALSE,0.094516608589948
EAPP,FALSE,0.0653526663812678
EBF3,FALSE,0.0031369190052821
EBNA1BP2,FALSE,0.319272007382846
ECD,FALSE,0.0934509882697258
ECE1,FALSE,0.00780129533796152
ECH1,TRUE,0.887422963865369
EDC3,FALSE,0.0308893648593628
EDEM3,FALSE,0.0366192852523127
EDNRA,FALSE,0.000326744929364452
EEF1B2,FALSE,0.188531226566076
EEPD1,FALSE,0.0360916303279766
EFHC1,FALSE,0.0134559909048863
EFNA4,FALSE,0.0147397860173394
EGFL6,FALSE,9.32590676963405e-06
EGR1,FALSE,0.00195172885230668
EGR2,FALSE,0.000795769481978173
EHD4,FALSE,0.0379523082721637
EIF1AY,FALSE,0.00435773584744201
EIF1B,FALSE,0.11838725954679
EIF2AK4,FALSE,0.0563304663887712
EIF2D,FALSE,0.0970973792166794
EIF2S1,FALSE,0.176399223836553
EIF3A,FALSE,0.0642733137889353
EIF3C,FALSE,0.0807087314740158
EIF3D,FALSE,0.0509856403685663
EIF3H,FALSE,0.12363569471043
EIF3K,FALSE,0.555876286376271
EIF4E2,FALSE,0.0943766999304678
EIF4EBP1,FALSE,0.294818270121691
EIF4G1,FALSE,0.113382132153642
EIF5,FALSE,0.0942352186931935
EIF5A,FALSE,0.274978366595017
EIF5AL1,FALSE,0.251293253999896
ELAC1,FALSE,0.123123473380428
ELF2,FALSE,0.0224253132107488
ELMO2,FALSE,0.008892985150972
ELOVL1,FALSE,0.0305272274655447
ELOVL5,FALSE,0.025912447090095
ELP2,FALSE,0.0822661101197475
ELP5,FALSE,0.442927227041895
EMC10,FALSE,0.0601081562903031
EMC4,FALSE,0.187787635763735
EMC9,FALSE,0.312582030816623
EMCN,FALSE,0.00935949338050319
EMD,FALSE,0.0327518177470362
ENDOG,TRUE,0.869269517933904
ENG,FALSE,0.0171538973034836
ENGASE,FALSE,0.134535295174739
ENPP1,FALSE,0.0367868821863592
ENTPD7,FALSE,0.0174501825995456
EOGT,FALSE,0.00981753838903103
EP300,FALSE,0.00694650353846146
EPB41L4B,FALSE,0.115600815983841
EPC2,FALSE,0.010409543024918
EPHA3,FALSE,0.000500659285805913
ERC1,FALSE,0.00986471085138654
ERCC2,FALSE,0.0956120531213243
ERCC3,FALSE,0.0477100433946491
ERCC5,FALSE,0.0368392192520523
EREG,FALSE,0.00372770070306351
ERF,FALSE,0.00797247715818373
ERG,FALSE,0.00334887175986096
ERH,FALSE,0.0808973472566875
ERICH1,FALSE,0.0550950029731224
ERLEC1,FALSE,0.035347361739624
ERN1,FALSE,0.0144553384000231
ESD,FALSE,0.151726809811501
ESM1,FALSE,0.000118659612603557
ESPL1,FALSE,0.0391679270051802
ETV1,FALSE,0.00310495164567418
ETV3,FALSE,0.00730123131003835
ETV4,FALSE,0.0118144466256258
EVA1B,FALSE,0.005543612612628
EXO5,FALSE,0.04180635109319
EXOSC1,FALSE,0.138052985535463
EXOSC7,FALSE,0.310132863874282
EXT1,FALSE,0.00851266210932735
EXT2,FALSE,0.0138850950931892
FABP3,FALSE,0.699349599399783
FABP5,FALSE,0.00901690763681234
FADS3,FALSE,0.100903045319467
FAHD2B,FALSE,0.322181232699591
FAM104B,FALSE,0.149026214370925
FAM111B,FALSE,0.0909404525601893
FAM114A1,FALSE,0.0221534334590675
FAM114A2,FALSE,0.0642514390651611
FAM117B,FALSE,0.00728221863752588
FAM118B,FALSE,0.129767646599165
FAM120A,FALSE,0.193701727843471
FAM120B,FALSE,0.0400951294291591
FAM126B,FALSE,0.0238819193416112
FAM129B,FALSE,0.00256870381820433
FAM160A2,FALSE,0.0367244982374336
FAM160B1,FALSE,0.0406372964332988
FAM171A1,FALSE,0.0139256800472452
FAM172A,FALSE,0.0169967187458272
FAM173A,FALSE,0.411219133110349
FAM173B,FALSE,0.177287825094485
FAM174B,FALSE,0.00365378599836088
FAM200B,FALSE,0.0858089801303623
FAM3C,FALSE,0.0223919139108505
FAM50A,FALSE,0.0639195409839218
FAM91A1,FALSE,0.0112751022570012
FANCI,FALSE,0.0103441113279612
FAP,FALSE,0.000231828541177057
FAR1,FALSE,0.0147080130686496
FAR2,FALSE,0.0510653261250296
FARSB,FALSE,0.318263072249608
FBL,FALSE,0.0520183887107183
FBXL15,FALSE,0.121274048918067
FBXL3,FALSE,0.0185938402438399
FBXO22,FALSE,0.185607653626148
FBXO25,FALSE,0.140581655407163
FBXO28,FALSE,0.0354194574618724
FBXO33,FALSE,0.0229441355449709
FBXO4,FALSE,0.0861772392389296
FBXO43,FALSE,0.0487361892180777
FBXO8,FALSE,0.116843009500363
FBXW2,FALSE,0.0505295722745038
FBXW7,FALSE,0.0312549396171138
FCHSD2,FALSE,0.0151944815728079
FEM1C,FALSE,0.0758261259185901
FER,FALSE,0.00622853492514961
FERMT1,FALSE,0.0403440386033041
FEZ1,FALSE,0.00310496396831989
FGF9,FALSE,0.0775235792328929
FGFR1,FALSE,0.00158926118374814
FGFR1OP2,FALSE,0.0212345439761624
FGFR2,FALSE,0.00053444912324978
FIBCD1,FALSE,0.0948591920767516
FIBIN,FALSE,0.000804248688290198
FILIP1,FALSE,0.011744983423054
FIZ1,FALSE,0.0650510026209893
FKBPL,FALSE,0.0396784145118087
FLG,FALSE,0.00255576881838236
FLRT2,FALSE,0.000271416838108639
FLT1,FALSE,0.0182162431205835
FLVCR1,FALSE,0.0196361017958063
FLYWCH1,FALSE,0.0492518967423773
FMN1,FALSE,0.000969191274974381
FN3K,FALSE,0.460338599075797
FNTA,FALSE,0.0633753176095699
FOCAD,FALSE,0.0972783347657223
FOXJ3,FALSE,0.0255290140128748
FOXK1,FALSE,0.0157856209118323
FOXL1,FALSE,0.010291136085775
FOXO1,FALSE,0.0209461004965344
FOXP1,FALSE,0.00364210377555577
FOXS1,FALSE,0.00126113427869417
FRMD4A,FALSE,0.0463194247235438
FRMD6,FALSE,0.00110111272809722
FRS3,FALSE,0.0638867058230893
FSD1L,FALSE,0.044543588616329
FST,FALSE,0.00659183204253836
FTH1,TRUE,0.113357401740983
FTO,FALSE,0.0372092855913829
FUCA1,FALSE,0.0632054739018286
FUNDC1,TRUE,0.34494878746605
FUT10,FALSE,0.0381705446654489
FXR1,FALSE,0.0886726632420305
FYN,FALSE,0.00169321664826856
G3BP2,FALSE,0.0352069018415025
GABARAPL2,FALSE,0.0746571761181437
GALE,FALSE,0.401353371919775
GALNS,FALSE,0.0282884737828991
GALNT16,FALSE,0.0332315850284325
GAS2L3,FALSE,0.00388289111402397
GAS7,FALSE,0.000216914384669924
GATA2,FALSE,0.00109922685044015
GATAD1,FALSE,0.0800809445121453
GATAD2A,FALSE,0.0114073234298364
GBA2,FALSE,0.15008133741766
GBP4,FALSE,0.00396789675082323
GDF6,FALSE,4.87581573964497e-05
GDI2,FALSE,0.0668887018098717
GEMIN5,FALSE,0.0650270776402623
GEMIN8,FALSE,0.127481899741657
GFOD2,FALSE,0.0204646147786412
GFPT2,FALSE,0.00133255008958194
GGT5,FALSE,0.0119110499899958
GGT7,FALSE,0.0359114923871166
GID4,FALSE,0.028332191191287
GID8,FALSE,0.0311587079626093
GIGYF1,FALSE,0.0185954553847837
GIMAP2,FALSE,0.00671090886301308
GINM1,FALSE,0.050968083702852
GINS1,FALSE,0.0243431995071105
GINS2,FALSE,0.0463798760925196
GIPC2,FALSE,0.258362946172488
GLI4,FALSE,0.102091075710017
GLIS2,FALSE,0.0023399898503203
GLS,TRUE,0.0187549850864108
GLT8D1,FALSE,0.0508222681070351
GLYATL2,FALSE,0.000348395873067192
GMNN,FALSE,0.254921912242644
GMPR,FALSE,0.0909695457351341
GNAZ,FALSE,0.00202050995360654
GNG12,FALSE,0.00921080309880059
GNL1,FALSE,0.0089644269148701
GOLGA1,FALSE,0.076624380910081
GOLGA4,FALSE,0.0824298789802518
GOLPH3,TRUE,0.0340971266675001
GOLT1B,FALSE,0.0489627714772769
GORASP1,FALSE,0.0466262693194352
GPAT2,FALSE,0.0553050124693943
GPATCH1,FALSE,0.0367083555494003
GPATCH2L,FALSE,0.0161079892759593
GPATCH4,FALSE,0.251582650051344
GPC1,FALSE,0.0521871132945347
GPC4,FALSE,0.0136724290747921
GPC6,FALSE,0.00697414814350571
GPN2,FALSE,0.0823854753131689
GPN3,FALSE,0.155987082094671
GPR137C,FALSE,0.0039955260890608
GPR155,FALSE,0.0919504566073739
GPR75,FALSE,0.0186276140491241
GPRC5A,FALSE,0.000347211144439148
GPT2,TRUE,0.891862633770036
GPX1,TRUE,0.142615263725023
GPX4,TRUE,0.248806406475563
GRPEL1,TRUE,0.728611016139303
GRSF1,TRUE,0.337606132323861
GRWD1,FALSE,0.0933448145446535
GSS,FALSE,0.304351096423814
GSTM4,FALSE,0.282924321439849
GTF2F2,FALSE,0.220740191631776
GTF2H2,FALSE,0.103342192886675
GTF2H2C,FALSE,0.0476116529953499
GTPBP1,FALSE,0.0114880946802149
GUCY1A2,FALSE,0.00476470730950398
GXYLT1,FALSE,0.0166612385510726
GYG2,FALSE,0.0424957978655211
H1F0,FALSE,0.0122081341468633
H6PD,FALSE,0.0403221288556442
HABP4,FALSE,0.0234678268762957
HAGHL,FALSE,0.0145089939058192
HAND2,FALSE,0.0300515198417164
HAUS2,FALSE,0.0697398429060506
HBP1,FALSE,0.0206401363883971
HBS1L,FALSE,0.144448880854668
HDAC3,FALSE,0.0933784705885094
HDAC4,FALSE,0.0241614648550941
HEATR6,FALSE,0.038524152526961
HEBP1,TRUE,0.0404172422115264
HERC6,FALSE,0.0461509926976313
HERPUD2,FALSE,0.0131556745341965
HEXIM2,FALSE,0.22466079356603
HEYL,FALSE,0.00169565398608847
HHIPL1,FALSE,0.00157269940846
HIC2,FALSE,0.0118838722908612
HIGD1A,TRUE,0.547319958108656
HIGD2A,TRUE,0.575049554113793
HINFP,FALSE,0.0295668222294228
HIPK1,FALSE,0.00605672734156186
HIRA,FALSE,0.0491740928965619
HLX,FALSE,0.00348569472179403
HMBOX1,FALSE,0.0231976643571234
HMG20A,FALSE,0.0778845919527734
HMGCR,FALSE,0.0279507296931183
HNRNPH1,FALSE,0.0315907572762269
HOXA1,FALSE,0.00939783570597341
HOXA4,FALSE,0.00989200117651229
HOXA6,FALSE,0.0185200087994791
HOXB2,FALSE,0.0189620514672332
HOXB5,FALSE,0.00438634714335501
HOXC11,FALSE,0.00063460000817878
HOXC9,FALSE,0.0142933306627702
HOXD11,FALSE,0.0341431223576138
HPS3,FALSE,0.017594309799116
HPS4,FALSE,0.0225062485929549
HR,FALSE,0.00215258529941891
HRH1,FALSE,0.00091761509146068
HSBP1,FALSE,0.0785812435666345
HSD17B1,FALSE,0.032671132159451
HSD17B12,FALSE,0.227525581243977
HSF2,FALSE,0.0382373554059775
HSP90AA1,FALSE,0.0525384260147799
HSPA14,FALSE,0.0887088489426894
HSPA1B,FALSE,0.00599651378284517
HSPA1L,FALSE,0.0277817380310528
HSPA4L,FALSE,0.0559874864484866
HSPA8,FALSE,0.213836684601844
HSPB3,FALSE,0.030841499407873
HTATIP2,TRUE,0.168676246868749
HTRA1,FALSE,0.00390428067105667
HTRA2,TRUE,0.0619597869886887
HTRA3,FALSE,0.00113050233319874
HUWE1,FALSE,0.0347098401423065
IBA57,TRUE,0.177698839171398
IBTK,FALSE,0.142693839335434
ID2,FALSE,0.0251691588148627
IDH3A,TRUE,0.43539074104713
IDI1,TRUE,0.267801782378675
IFI44,FALSE,0.0134799300735213
IFI6,FALSE,0.00836090394317529
IFIT1,FALSE,0.0642112800593684
IFIT5,FALSE,0.0166643644735492
IFITM2,FALSE,0.0109121141615832
IFITM3,FALSE,0.00972061073424756
IFNGR1,FALSE,0.010745879741761
IFNGR2,FALSE,0.017146445251851
IFT43,FALSE,0.074700454632225
IFT52,FALSE,0.00825270405091805
IGBP1,FALSE,0.0865296756061592
IGF1R,FALSE,0.00471536062609105
IGFBP2,FALSE,0.0843918227167707
IGHMBP2,FALSE,0.034602029505581
IL15RA,FALSE,0.0166883489826124
IL17RA,FALSE,0.0179002786002652
IL17RB,FALSE,0.133443009715748
IL1R1,FALSE,0.00241449490670266
IL20RB,FALSE,0.00220392145622491
IL24,FALSE,0.00130507113171258
IMPA2,FALSE,0.388174656369038
IMPAD1,FALSE,0.0630553701442267
INCENP,FALSE,0.00753933436024238
INF2,FALSE,0.0166004715513963
ING5,FALSE,0.0324766831006509
INHBB,FALSE,0.000536602192803541
INMT,FALSE,0.000789547457530903
INPPL1,FALSE,0.0651417670925663
INTS1,FALSE,0.0487581999406225
INTS2,FALSE,0.0431606433687711
INTU,FALSE,0.0201946811263489
INVS,FALSE,0.0303475040386888
IP6K1,FALSE,0.00848100302639943
IPO11,FALSE,0.0454524645631368
IPP,FALSE,0.106234264546092
IQSEC1,FALSE,0.0310982290933673
IRAK3,FALSE,0.00611687510869424
IRF2BP1,FALSE,0.0385662040813161
IRF3,FALSE,0.0336976196531642
ITFG2,FALSE,0.0409312208977849
ITGA1,FALSE,0.0167120625720829
ITGA10,FALSE,0.00335144230038194
ITGA4,FALSE,0.000816048753304172
ITGA8,FALSE,0.00143758236653424
ITGAE,FALSE,0.124808714416051
ITGB1BP1,FALSE,0.0555805112752094
ITGB2,FALSE,0.00161567360142331
ITGB3,FALSE,0.00279287637296639
ITM2C,FALSE,0.0485264114063116
ITPK1,FALSE,0.0597808067642306
ITPRIP,FALSE,0.00629358783583305
JAG1,FALSE,0.00310964321028162
JMJD4,FALSE,0.166385990252377
JOSD2,FALSE,0.0772786459752036
JPH2,FALSE,0.0447973194294185
JTB,FALSE,0.107978984592777
JUN,FALSE,0.00328240509664696
JUP,FALSE,0.0206440375139798
KANK1,FALSE,0.0386140817983467
KARS,TRUE,0.219095445343771
KAT8,FALSE,0.0354434458036151
KATNB1,FALSE,0.0638403526779961
KCNAB2,FALSE,0.0276928734165301
KCND3,FALSE,0.00275390428659185
KCNG1,FALSE,0.000183622948292933
KCNK2,FALSE,0.0104171922226928
KCNMA1,FALSE,0.0113354954985866
KCTD16,FALSE,0.00136400153727616
KCTD17,FALSE,0.00318421050473908
KDELR3,FALSE,0.0140334511514246
KDM5C,FALSE,0.0220227228511901
KHDC1,FALSE,0.0119490832077035
KHDRBS1,FALSE,0.0501406613049084
KHSRP,FALSE,0.021241225996579
KIAA0556,FALSE,0.0106365058144942
KIAA1468,FALSE,0.0356643664506269
KIAA1522,FALSE,0.0101123181438471
KIAA1551,FALSE,0.00782367457099896
KIAA1671,FALSE,0.00526605544733703
KIAA1841,FALSE,0.0248192831030409
KIF15,FALSE,0.0128362668448214
KIF18A,FALSE,0.00425148161816103
KIF20B,FALSE,0.013028602081012
KIF2A,FALSE,0.00617890326520302
KIF4A,FALSE,0.00635487025279591
KLF12,FALSE,0.025170302226594
KLF15,FALSE,0.549158397784041
KLF4,FALSE,0.0039618155120465
KLF5,FALSE,0.0012861811510267
KLF6,FALSE,0.0102730022311638
KLHDC2,FALSE,0.192802547718518
KLHL11,FALSE,0.0422426552078202
KLHL15,FALSE,0.0176662581016411
KLHL17,FALSE,0.0169047923280326
KLHL23,FALSE,0.0275172786007593
KLHL41,FALSE,0.0108092080095508
KLHL7,FALSE,0.136279200956023
KMT2E,FALSE,0.00468407517948348
KNSTRN,FALSE,0.107160362448804
KRBA1,FALSE,0.01924556621581
KRCC1,FALSE,0.0648522721957343
KRT19,FALSE,0.000602102030317424
KRT34,FALSE,0.00299786404846942
KRT7,FALSE,0.000247794132147922
KRTAP2-2,FALSE,0.0334381011932061
L1CAM,FALSE,0.00686323352385539
L3MBTL3,FALSE,0.0120150325994575
LACC1,FALSE,0.0429014206462396
LAMB1,FALSE,0.00993641304169475
LAMTOR2,FALSE,0.404989830349451
LANCL2,FALSE,0.0870603844530431
LAPTM4A,FALSE,0.0234693397975953
LARS,FALSE,0.083945146773482
LBH,FALSE,0.00734182068473078
LBX2,FALSE,0.0415904915745071
LDB2,FALSE,0.00439889878934179
LETMD1,TRUE,0.120001382619564
LGMN,FALSE,0.0518312757716036
LGR5,FALSE,0.00600596830687168
LHX2,FALSE,0.0193101752245269
LIMCH1,FALSE,0.0140471494427909
LIMD1,FALSE,0.0441314004384587
LIMK1,FALSE,0.00678712805339065
LIMK2,FALSE,0.0083209488768185
LIN7C,FALSE,0.03390993937173
LMLN,FALSE,0.0818157639365109
LMNA,FALSE,0.019406532338586
LNPEP,FALSE,0.0267176348864179
LNX1,FALSE,0.0550086432921315
LONP2,TRUE,0.15460033327088
LOX,FALSE,0.000191713540629306
LOXL1,FALSE,0.00100590222463266
LOXL2,FALSE,0.00640468006317624
LPCAT2,FALSE,0.000919330981211679
LPIN1,FALSE,0.214980470765966
LPP,FALSE,0.00788846392043121
LPXN,FALSE,0.0207538850851347
LRCH2,FALSE,0.00335179714139893
LRP1,FALSE,0.00180246096816655
LRP10,FALSE,0.0143190979455039
LRP11,FALSE,0.00599276570739414
LRPPRC,TRUE,0.557776752887336
LRRC15,FALSE,0.00111035649198008
LRRC17,FALSE,0.00653183655516118
LRRC37A2,FALSE,0.00678163619430807
LRRC37A3,FALSE,0.00333633660924222
LRRC37B,FALSE,0.0067454579207331
LRRC41,FALSE,0.0392600776524446
LRRC42,FALSE,0.0753129369947496
LRRC49,FALSE,0.0457334440796511
LRRC8C,FALSE,0.0160403061150381
LRRFIP2,FALSE,0.0757576913281302
LRRN4CL,FALSE,0.00255047652175401
LSM12,FALSE,0.135230304937113
LSM14A,FALSE,0.0177513042658775
LSM2,FALSE,0.0959826801781516
LSM6,FALSE,0.0580553322313474
LSM7,FALSE,0.131772661167145
LURAP1L,FALSE,0.0031852113828715
LY75,FALSE,0.00722583062500007
LYN,FALSE,0.00254839123950402
LZTFL1,FALSE,0.0187660967991008
MAB21L1,FALSE,0.0024902708746143
MAD1L1,FALSE,0.0313845144402428
MAFF,FALSE,0.00340787480472097
MAGI3,FALSE,0.0143108638733176
MAN2A1,FALSE,0.00842699371619651
MAN2C1,FALSE,0.0834576694385779
MANBA,FALSE,0.0251130326868445
MAP1A,FALSE,0.000984132905532137
MAP1LC3C,FALSE,0.00347053739567139
MAP1S,FALSE,0.0161810920812617
MAP2K4,FALSE,0.0585853044383068
MAP3K8,FALSE,0.00860000068264037
MAP4,FALSE,0.0326090541551436
MAP4K3,FALSE,0.040813567152075
MAPK13,FALSE,0.00525016005904318
MAPK6,FALSE,0.0195964671660414
MAPKAP1,FALSE,0.168360767250565
MAPKBP1,FALSE,0.0124727120743279
MAPRE3,FALSE,0.118500095758518
MARCH5,TRUE,0.0712167711794389
MARCH6,FALSE,0.038554540609257
MARCH7,FALSE,0.0204238444138445
MARS,FALSE,0.0391973837513719
MAST2,FALSE,0.0590713721469556
MAST3,FALSE,0.0150090989063605
MASTL,FALSE,0.0269568975062419
MAT2B,FALSE,0.0662451630252077
MATR3,FALSE,0.0330556934954489
MAX,FALSE,0.0176704952109696
MB21D2,FALSE,0.0123657947199637
MBIP,FALSE,0.0325463351890795
MCAT,TRUE,0.50562482365337
MCHR1,FALSE,0.000253937661725047
MCM2,FALSE,0.0482884389600317
MCM4,FALSE,0.114888999867237
MCM9,FALSE,0.0161130525777984
MCMBP,FALSE,0.0339510941507671
MCRS1,FALSE,0.106382308197283
MDC1,FALSE,0.0134499597044525
MDFIC,FALSE,0.048989938679844
MDH1,TRUE,0.933600093776695
MED24,FALSE,0.102128127121658
MEF2D,FALSE,0.0143511231942456
METTL13,FALSE,0.180375139421137
MFAP2,FALSE,6.61157021514635e-05
MFAP5,FALSE,0.00118533571158496
MFN2,TRUE,0.311278755408839
MFSD3,FALSE,0.611953855883672
MGA,FALSE,0.00948682546012317
MGLL,FALSE,0.139371227583401
MGMT,FALSE,0.177230748128011
MGRN1,FALSE,0.0330496869469082
MGST1,TRUE,0.414833811982366
MICAL3,FALSE,0.0260383191649911
MICU2,TRUE,0.412310209006554
MIDN,FALSE,0.0213699319609591
MIEF2,FALSE,0.178227078206696
MIEN1,FALSE,0.175941468036754
MINPP1,FALSE,0.0669522083198761
MIOS,FALSE,0.0820480500561023
MIS18BP1,FALSE,0.0121225908718865
MLEC,FALSE,0.213354470717734
MLPH,FALSE,0.00131575841315319
MLYCD,TRUE,0.8865507258145
MMAB,TRUE,0.615878493104519
MMACHC,TRUE,0.821362885327547
MMD,FALSE,0.0288445940175462
MME,FALSE,0.0753243352786807
MMP16,FALSE,6.07056977444515e-05
MN1,FALSE,0.00346683356075727
MOB1B,FALSE,0.028189755240679
MOB3A,FALSE,0.0126958446314024
MOCOS,FALSE,0.560058674398533
MOCS3,FALSE,0.173460974933593
MON1B,FALSE,0.0401883343992048
MORC3,FALSE,0.00931214825410051
MORC4,FALSE,0.00793082230991029
MORF4L1,FALSE,0.0436015874101941
MORN2,FALSE,0.310164340652449
MOSPD2,FALSE,0.0134896329748345
MPDZ,FALSE,0.00602996794817076
MPG,FALSE,0.165341354892827
MRGBP,FALSE,0.0338826774980003
MRPL1,TRUE,0.718200371386675
MRPL15,TRUE,0.831927741137772
MRPL28,TRUE,0.259492599608596
MRPL34,TRUE,0.781299127848345
MRPL42,TRUE,0.248282297667673
MRPL51,TRUE,0.470987713179232
MRPL54,TRUE,0.477647984549665
MRPS11,TRUE,0.591539297564773
MRPS12,TRUE,0.746436194977039
MRPS15,TRUE,0.631752160635606
MRPS18B,TRUE,0.690326854025783
MRPS5,TRUE,0.35767055233652
MSH2,FALSE,0.0462340067754049
MSH6,FALSE,0.0205275095170048
MSL2,FALSE,0.0163733434428682
MSL3,FALSE,0.0209733513723627
MSN,FALSE,0.00564489063059853
MSRA,TRUE,0.483505398590293
MSRB1,FALSE,0.423800167183368
MT1M,FALSE,0.0681308707260134
MTCH2,TRUE,0.742101634153746
MTF1,FALSE,0.014590926525194
MTFP1,TRUE,0.731231144319136
MTHFD1,TRUE,0.736478278332277
MTHFSD,FALSE,0.0811286002337958
MTIF3,TRUE,0.413519207674486
MTO1,TRUE,0.148661112747385
MTR,FALSE,0.0445014644592374
MTSS1L,FALSE,0.00484964516307867
MX1,FALSE,0.0123847733008385
MYADM,FALSE,0.0031934025025002
MYBBP1A,FALSE,0.0542590296887914
MYBL1,FALSE,0.00153037341391321
MYC,FALSE,0.0245048797577974
MYH10,FALSE,0.00424307064397947
N4BP2,FALSE,0.0118205139161949
N4BP2L1,FALSE,0.0107808765093846
N4BP2L2,FALSE,0.0550088189114814
NAA10,FALSE,0.163378201057891
NAA35,FALSE,0.10948231337963
NAB2,FALSE,0.00271952211502991
NADK,FALSE,0.0866087883917186
NAE1,FALSE,0.0879966577983422
NANP,FALSE,0.0881011627773429
NANS,FALSE,0.202055660870956
NARFL,FALSE,0.13113328787494
NARS,FALSE,0.277076347284563
NAT1,FALSE,0.14508476650826
NAT14,FALSE,0.0146128176955388
NCALD,FALSE,0.00427457579900432
NCAPD2,FALSE,0.0217436767073255
NCAPD3,FALSE,0.0357440846377433
NCAPG2,FALSE,0.0510396031990028
NCBP2,FALSE,0.109292717478246
NCEH1,TRUE,0.337495912289787
NCOA1,FALSE,0.0225753151940383
NCOA7,FALSE,0.0113233240578096
NCR3LG1,FALSE,0.019670380604189
NDFIP1,FALSE,0.042870762326806
NDFIP2,FALSE,0.13424973225888
NDN,FALSE,0.0246196832134729
NDRG1,FALSE,0.00502553129733331
NDST1,FALSE,0.012518588197864
NDUFA9,TRUE,0.875277881277966
NDUFAF7,TRUE,0.253969737723706
NDUFB3,TRUE,0.904242015743578
NDUFB4,TRUE,0.696335516255042
NDUFB6,TRUE,0.634435355624067
NDUFB7,TRUE,0.69049863607445
NDUFS4,TRUE,0.65869490359238
NECAB3,FALSE,0.391306335275558
NEFH,FALSE,0.00890017509354948
NEK4,FALSE,0.0256909538085985
NEK7,FALSE,0.0403715956873387
NF2,FALSE,0.102283536655494
NFATC2IP,FALSE,0.0576501481656061
NFATC3,FALSE,0.00455954563703034
NFATC4,FALSE,0.00958392354579627
NFE2L2,FALSE,0.021712258606305
NFIB,FALSE,0.014875894222229
NFKBIA,FALSE,0.0264101368886526
NFKBIE,FALSE,0.00750264439476679
NFRKB,FALSE,0.0185843227843652
NFS1,TRUE,0.683040520145354
NFX1,FALSE,0.0447484733065913
NGLY1,FALSE,0.15175618531769
NHLRC3,FALSE,0.110272698331424
NID1,FALSE,0.020431869277348
NIP7,FALSE,0.131466179303009
NIPAL3,FALSE,0.0104698633903803
NKRF,FALSE,0.0543830123284861
NKTR,FALSE,0.013235189056431
NKX3-1,FALSE,0.00282368965254661
NLK,FALSE,0.0840411365918553
NLN,TRUE,0.290494875164456
NMD3,FALSE,0.12934866290136
NME4,TRUE,0.123931349329334
NMI,FALSE,0.0442824214254953
NMRAL1,FALSE,0.0711172965528748
NMT1,FALSE,0.124660814874422
NNT,TRUE,0.881872016388558
NOG,FALSE,0.000292322168396293
NOL10,FALSE,0.112719090809952
NOL6,FALSE,0.0533801834773354
NOLC1,FALSE,0.041810647437062
NOP16,FALSE,0.451070419262138
NOP56,FALSE,0.0564172395757338
NPAS1,FALSE,0.0292013744511537
NPLOC4,FALSE,0.0917053189179926
NPM1,FALSE,0.112761962159707
NPM3,FALSE,0.158151193775362
NPRL2,FALSE,0.0833378840637632
NQO2,FALSE,0.22362496899679
NR1H2,FALSE,0.0439394216188567
NR2C1,FALSE,0.0478436527600358
NR2C2AP,FALSE,0.0348327060778075
NR4A2,FALSE,0.00297269596591038
NSA2,FALSE,0.139286520881552
NSD1,FALSE,0.0122472742496022
NSF,FALSE,0.0540775052539528
NSMCE1,FALSE,0.143465175726693
NSMCE2,FALSE,0.112592613924906
NSMF,FALSE,0.0228586846248008
NT5C,TRUE,0.15839767123256
NT5DC3,TRUE,0.037317057471016
NT5E,FALSE,0.00253735799009189
NUCB2,TRUE,0.0280851545382804
NUDCD1,FALSE,0.0564338697337087
NUDT15,FALSE,0.205613686175508
NUDT22,FALSE,0.474470878926906
NUDT9,TRUE,0.132917771227022
NUP153,FALSE,0.0256464700664734
NUP37,FALSE,0.25988130290008
NUP50,FALSE,0.022385436403762
NUP93,FALSE,0.0406772229724178
NUTF2,FALSE,0.0963622882778581
OAT,TRUE,0.018423022240307
ODF2,FALSE,0.0107818931384639
ODF2L,FALSE,0.0110343734757401
OFD1,FALSE,0.0222108086696505
OGFOD3,FALSE,0.128790552230993
OGT,FALSE,0.0394781872179867
OLFML1,FALSE,0.000508145984273531
OPN3,FALSE,0.0605154042036459
OR2A7,FALSE,0.00324975271721644
ORAI3,FALSE,0.0362742899239461
ORC2,FALSE,0.0628996465933152
ORMDL2,FALSE,0.102163538439564
OSBPL7,FALSE,0.0466165466710313
OSCP1,FALSE,0.0756471586520686
OSMR,FALSE,0.00461695882061672
OSR1,FALSE,0.000409849601382299
OSTC,FALSE,0.0548144784094083
OTUB2,FALSE,0.041150837271417
OTUD5,FALSE,0.0372282124417761
OXCT1,TRUE,0.601937447293122
OXLD1,TRUE,0.29068014587249
OXR1,TRUE,0.0691583339825144
P2RX4,FALSE,0.0132141093742192
P4HA1,FALSE,0.0410343808612378
P4HB,TRUE,0.104260022805864
PABPC1L,FALSE,0.0316322684151752
PACS2,FALSE,0.0310597114586761
PAK1IP1,FALSE,0.109273731662521
PALB2,FALSE,0.0516624559724853
PAPOLG,FALSE,0.009225919012635
PAPSS2,FALSE,0.0355556661017914
PAQR4,FALSE,0.0198905934678143
PARD3,FALSE,0.0208701171139914
PARD3B,FALSE,0.00693396456069987
PARG,FALSE,0.106796425430036
PARK7,TRUE,0.465597555870273
PARL,TRUE,0.166184507972768
PARP1,FALSE,0.175004139810924
PARP16,FALSE,0.0303701340401291
PARP2,FALSE,0.108496414288121
PARP3,FALSE,0.425399503181135
PASK,FALSE,0.00944003431782479
PAXBP1,FALSE,0.0217859244965116
PBK,FALSE,0.0159190651146172
PBLD,FALSE,0.722314405897256
PBX1,FALSE,0.0073745421100815
PCCB,TRUE,0.944868033070207
PCDH10,FALSE,0.000210458882143315
PCDH19,FALSE,0.00157891618031595
PCDHB3,FALSE,0.00397751692913934
PCDHB8,FALSE,0.00160005489249813
PCDHGA1,FALSE,0.025731097236662
PCDHGB7,FALSE,0.00234664721907548
PCDHGC4,FALSE,0.0212421504440608
PCNA,FALSE,0.117244519521293
PCP4,FALSE,0.0142248476424304
PCSK9,FALSE,0.000628497370773173
PDCD4,FALSE,0.0141830749443338
PDCD6IP,FALSE,0.042972970362313
PDE11A,FALSE,0.395297449654962
PDE3A,FALSE,0.0153992350645686
PDE4B,FALSE,0.000394634309747362
PDE7B,FALSE,0.0416464285282467
PDGFA,FALSE,0.00930406341071891
PDIA4,FALSE,0.0134071950511189
PDP2,TRUE,0.163142773238282
PDXDC1,FALSE,0.106605229374006
PDZD11,FALSE,0.214155672107479
PDZD8,FALSE,0.0173234468825864
PELI3,FALSE,0.0120908933834077
PER3,FALSE,0.00830903245601063
PERP,FALSE,0.0158998428066544
PEX10,FALSE,0.268695452017043
PEX12,FALSE,0.193725845862908
PEX7,FALSE,0.65487702062148
PFDN6,FALSE,0.281066511958919
PFKFB4,FALSE,0.00306528555300762
PFKP,FALSE,0.0330741383500167
PGM1,FALSE,0.826772825416284
PGM3,FALSE,0.0517258737099375
PGPEP1,FALSE,0.144792581003337
PHACTR4,FALSE,0.0135200298949253
PHAX,FALSE,0.0829023711623053
PHB,TRUE,0.605165326432683
PHF10,FALSE,0.0195082421549805
PHF11,FALSE,0.0257055684467865
PHF13,FALSE,0.00656594037368559
PHF14,FALSE,0.0309475926540534
PHF20,FALSE,0.00907581588978554
PHF23,FALSE,0.0501578670487772
PHF6,FALSE,0.0622662604725969
PHKB,FALSE,0.164006099900027
PHLDA2,FALSE,0.0128900207885924
PHLDA3,FALSE,0.0229412082867821
PI4KB,FALSE,0.0260265148332694
PIGB,FALSE,0.0270464287484014
PIGC,FALSE,0.0406580046265655
PIGM,FALSE,0.0277434060167196
PIGP,FALSE,0.342908607487995
PIGX,FALSE,0.0834872023504922
PIGZ,FALSE,0.254738530817278
PIK3R1,FALSE,0.0346290899262965
PILRB,FALSE,0.0748212657523314
PITHD1,FALSE,0.0587826442892364
PITPNB,FALSE,0.0299795803804238
PITPNM2,FALSE,0.0461685583748371
PJA2,FALSE,0.0116176045177637
PKM,FALSE,0.283012609963442
PKNOX1,FALSE,0.0127609352153306
PLAUR,FALSE,0.00134135957794344
PLCD3,FALSE,0.0857540498684159
PLCG1,FALSE,0.00526595385119782
PLCL1,FALSE,0.089915961136319
PLD2,FALSE,0.010211431630699
PLEK2,FALSE,0.00199042589687501
PLEKHH3,FALSE,0.0342955068444886
PLEKHO1,FALSE,0.00895841144960162
PLIN3,FALSE,0.0478360203356969
PLK2,FALSE,0.00428552153769339
PLK3,FALSE,0.00508406581415019
PLOD3,FALSE,0.0323517452523861
PLTP,FALSE,0.00963445098685177
PLXNA4,FALSE,0.0305643303686806
PLXNB3,FALSE,0.00185540128708944
PMM2,FALSE,0.156588042501431
PNMA1,FALSE,0.00793958670899792
PNP,FALSE,0.0924605952632854
PNRC2,FALSE,0.0470840563812138
POC5,FALSE,0.0252767087015393
PODN,FALSE,0.0004686988044782
PODNL1,FALSE,0.000752563706721349
POGZ,FALSE,0.0246044508694384
POLDIP2,TRUE,0.612724099980908
POLDIP3,FALSE,0.0295255958259572
POLR2A,FALSE,0.0130970414963543
POLR2B,FALSE,0.0780830090661492
POLR2G,FALSE,0.156279313425266
POLR2J,FALSE,0.248685540904645
POLR2J3,FALSE,0.0251324794231467
POP5,FALSE,0.389832717610041
PORCN,FALSE,0.0325555793398668
PPARG,FALSE,0.249333930845819
PPFIA1,FALSE,0.0260965190756123
PPIP5K2,FALSE,0.0553935783977342
PPM1A,FALSE,0.060665795164309
PPM1D,FALSE,0.0127013182288293
PPM1H,FALSE,0.0176942009596721
PPP1R12C,FALSE,0.0402761782145825
PPP1R16A,FALSE,0.409524085742178
PPP1R3C,FALSE,0.113792000781083
PPP2R2C,FALSE,0.000728210053803636
PPP2R5D,FALSE,0.04198801110814
PPP4R2,FALSE,0.0284739049187936
PQLC1,FALSE,0.0814849683878181
PRDM11,FALSE,0.0119430713323757
PRDX3,TRUE,0.778520375398143
PREB,FALSE,0.203948997611257
PRKAA2,FALSE,0.0313445379273307
PRKAB1,FALSE,0.0775426458228485
PRMT1,FALSE,0.101346308361034
PROB1,FALSE,0.422302389341467
PROSER1,FALSE,0.0321457674090307
PRPF3,FALSE,0.0314295781903375
PRPF38A,FALSE,0.0185457371299669
PRPF8,FALSE,0.0285581018550651
PRPSAP1,FALSE,0.0448678046098276
PRRC2B,FALSE,0.0176796242198551
PRRT3,FALSE,0.0226233078139991
PRRX2,FALSE,0.000149725621265747
PSCA,FALSE,0.0121913234440293
PSG2,FALSE,0.0371451806198818
PSKH1,FALSE,0.0754413436359225
PSMA3,FALSE,0.316588786321197
PSMA6,TRUE,0.333332451322444
PSMB10,FALSE,0.0786972981056356
PSMB5,FALSE,0.310529210953427
PSMC2,FALSE,0.204375524857089
PSMC3,FALSE,0.147754694218434
PSMD1,FALSE,0.173165546929603
PSMD4,FALSE,0.192769321393287
PSMD5,FALSE,0.0337957226831224
PSMD8,FALSE,0.422098817779706
PSME3,FALSE,0.131614468747559
PSME4,FALSE,0.101351988839261
PSPH,FALSE,0.147657717316501
PSRC1,FALSE,0.00648886470987969
PTCD2,TRUE,0.592191589394019
PTCD3,TRUE,0.451727259393098
PTGES2,TRUE,0.570381953635033
PTGES3,FALSE,0.0419838654538552
PTGFR,FALSE,0.000507178879567325
PTGR1,FALSE,0.604300739666582
PTGS1,FALSE,0.00133580086327871
PTK2B,FALSE,0.00791255359611019
PTP4A2,FALSE,0.0502190663719863
PTPMT1,TRUE,0.262888208910599
PTPN9,FALSE,0.0187019744431601
PTPRA,FALSE,0.0103782802836476
PTPRJ,FALSE,0.00408905835066566
PWP1,FALSE,0.0659046305136497
PWWP2A,FALSE,0.029611497641756
PXK,FALSE,0.00630634300603466
PXN,FALSE,0.00919727861826918
PYCARD,FALSE,0.00995552453381965
PYGB,FALSE,0.0705663121390718
PYGO2,FALSE,0.023573746662597
QDPR,TRUE,0.511286322319473
QRICH1,FALSE,0.0264270900028072
QSOX1,FALSE,0.0155754323837452
RAB11FIP3,FALSE,0.0268792725220985
RAB12,FALSE,0.0851660209534632
RAB15,FALSE,0.0222325968516969
RAB18,FALSE,0.0737176906793276
RAB24,TRUE,0.050876360179985
RAB32,TRUE,0.00594949320871727
RAB33A,FALSE,0.00380845674573156
RAB3B,FALSE,0.00190008760829926
RAB3D,FALSE,0.00361985996018313
RAB3GAP1,FALSE,0.0430362408409138
RAB43,FALSE,0.00903696972309452
RAB6A,FALSE,0.031331428382756
RABGAP1L,FALSE,0.0243626941183254
RACGAP1,FALSE,0.0150508305162898
RAD1,FALSE,0.0745971522834604
RAD17,FALSE,0.115910977577358
RAD21,FALSE,0.0302833300713779
RAD50,FALSE,0.117200502495607
RAET1E,FALSE,0.00832185995771558
RAET1G,FALSE,0.00831789956403793
RALB,FALSE,0.0345261790160976
RALGAPA2,FALSE,0.0251341614456333
RAN,FALSE,0.172898476150704
RAP1GAP2,FALSE,0.028447855191167
RAP2C,FALSE,0.0971125743462656
RARA,FALSE,0.00450370208113211
RASA1,FALSE,0.0163066250758379
RASA3,FALSE,0.00697162234097624
RASD2,FALSE,0.00566744091670457
RAVER1,FALSE,0.0291854909477189
RBBP6,FALSE,0.0263385745795612
RBM22,FALSE,0.0400345951362659
RBM25,FALSE,0.0256371763720797
RBM38,FALSE,0.0209890618603989
RBM42,FALSE,0.0703222153697236
RBM45,FALSE,0.0777607308975534
RBM4B,FALSE,0.0410685698617775
RBMS2,FALSE,0.00548677897284695
RBPMS,FALSE,0.0484943713586079
RCN3,FALSE,0.00665247123399994
RECK,FALSE,0.00139232059214576
RETSAT,FALSE,0.590456818060854
RFC2,FALSE,0.0592148326117131
RFK,TRUE,0.0742884507552955
RFX2,FALSE,0.0021685706100708
RGL1,FALSE,0.00547344423621495
RGMB,FALSE,0.0278459364365382
RGN,FALSE,0.261179437362182
RGPD3,FALSE,0.00490323203711209
RGPD4,FALSE,0.00559285359521161
RGPD6,FALSE,0.0104574695966969
RGPD8,FALSE,0.00533522684456687
RHOJ,FALSE,0.0012720480071581
RICTOR,FALSE,0.0104863499849944
RINL,FALSE,0.0338736280939044
RINT1,FALSE,0.0924779502433572
RIPK1,FALSE,0.0202944576505666
RIPK2,FALSE,0.00903226051881255
RLF,FALSE,0.00791656720000328
RMI1,FALSE,0.107813612116052
RNASEH2A,FALSE,0.0408557598760565
RNF103,FALSE,0.0461317350464211
RNF13,FALSE,0.0154963715894813
RNF167,FALSE,0.086665491181656
RNF187,FALSE,0.0824997638213018
RNF2,FALSE,0.0140688552525436
RNF215,FALSE,0.0209254367422011
RNF217,FALSE,0.00395387721192875
RNF24,FALSE,0.00158514612907118
RNF25,FALSE,0.0507259255173949
RNF31,FALSE,0.0413303604101031
RNH1,FALSE,0.0472911205714195
ROR1,FALSE,0.00242655559269339
RORA,FALSE,0.00416497377531925
RP9,FALSE,0.114244902150786
RPAP2,FALSE,0.0631395380588623
RPL10,FALSE,0.0603222240219926
RPL18,FALSE,0.0745996960871141
RPL3,FALSE,0.0172270591393358
RPL30,FALSE,0.0944076338006752
RPL35,FALSE,0.123316585646581
RPL37A,FALSE,0.133207510067981
RPL39,FALSE,0.149331857995052
RPL39L,FALSE,0.0106128487076933
RPRD1A,FALSE,0.0616797880132011
RPRD1B,FALSE,0.0987522413657306
RPS12,FALSE,0.110671758047475
RPS23,FALSE,0.126392488177141
RPS27A,FALSE,0.0703588222395909
RPS27L,FALSE,0.309783646227266
RPS6KA3,FALSE,0.0201975356112769
RPS6KC1,FALSE,0.0254971604240563
RPS8,FALSE,0.117602826124042
RPUSD2,FALSE,0.258322596627686
RRBP1,FALSE,0.0116002811848824
RRM2B,FALSE,0.0501231859508304
RRP9,FALSE,0.223335282396482
RSPO4,FALSE,0.000666901245390107
RUFY2,FALSE,0.0125886166337411
RUSC1,FALSE,0.0178324314619602
RUSC2,FALSE,0.00742514548228465
RWDD2B,FALSE,0.363465474502619
RWDD3,FALSE,0.147784348830714
RXRA,FALSE,0.0653658893351383
S100A2,FALSE,0.00998215223598562
SAAL1,FALSE,0.169058943114272
SAFB2,FALSE,0.0256284810501486
SALL2,FALSE,0.0028503659075664
SAMD15,FALSE,0.00484780742807933
SAMD4A,FALSE,0.00910432367203684
SAMD8,FALSE,0.0142725515346135
SAMM50,TRUE,0.541740412425319
SARNP,FALSE,0.0205340283730642
SCAF11,FALSE,0.0237364153017783
SCCPDH,TRUE,0.341220730198874
SCD,FALSE,0.235436938195326
SCML1,FALSE,0.0487160458359086
SCNM1,FALSE,0.0592733442253699
SCRIB,FALSE,0.0530448747543589
SCUBE3,FALSE,0.00566565773877497
SDC3,FALSE,0.00312507620698913
SDHA,TRUE,0.906298294669983
SDHB,TRUE,0.900969405561156
SDSL,TRUE,0.800941521915929
SEC22C,FALSE,0.0204578257372202
SEMA6D,FALSE,0.00737855455643288
SENP2,FALSE,0.0492444156770098
SENP8,FALSE,0.474813606750824
SEPT2,FALSE,0.0448491406596833
SEPT6,FALSE,0.0228196085431618
SERBP1,FALSE,0.0729402697515194
SERF1A,FALSE,0.262936668758123
SERF2,FALSE,0.220374019602627
SERHL2,TRUE,0.0171587478007478
SERINC3,FALSE,0.0176276453298704
SERPINB1,FALSE,0.0190432533486633
SERPINB6,FALSE,0.0759587813240402
SERPINB8,FALSE,0.00778629796898614
SERPINE1,FALSE,0.00452304999530728
SERTAD3,FALSE,0.0307164861493812
SETMAR,FALSE,0.0420154663485105
SF1,FALSE,0.0310106565149166
SF3A3,FALSE,0.0523687416042157
SF3B3,FALSE,0.0500649032610755
SFMBT1,FALSE,0.0363904219259491
SFR1,FALSE,0.0408466109414201
SFRP2,FALSE,2.19725777412993e-06
SFXN2,TRUE,0.479598153390895
SFXN4,TRUE,0.785396816444452
SGSH,FALSE,0.0413405021663329
SH2B1,FALSE,0.0502310669970746
SH3BP5,FALSE,0.00169115085642155
SH3GLB2,FALSE,0.0278982191111735
SH3PXD2B,FALSE,0.000318618683780429
SHC1,FALSE,0.0281811597344546
SHCBP1,FALSE,0.0383192034938586
SHMT2,TRUE,0.279965733339922
SIK2,FALSE,0.0442350213201168
SIL1,FALSE,0.1704104568274
SIM1,FALSE,0.0268704944286482
SIRT5,TRUE,0.534736199983653
SIX2,FALSE,0.000132986747683474
SKAP2,FALSE,0.0104844291726642
SLAIN2,FALSE,0.0327991510811407
SLC12A4,FALSE,0.016350729851379
SLC15A3,FALSE,0.00480432831178933
SLC16A13,FALSE,0.0315407472145759
SLC16A2,FALSE,0.00779759673056674
SLC16A4,FALSE,0.00330778689428235
SLC16A9,FALSE,0.250476740361335
SLC22A17,FALSE,0.000622429908982031
SLC24A3,FALSE,0.00203630536393063
SLC25A19,TRUE,0.134162940147218
SLC25A23,TRUE,0.242588575283823
SLC25A30,TRUE,0.367785742530083
SLC25A39,TRUE,0.137502496141271
SLC26A2,FALSE,0.0697243711409832
SLC30A1,FALSE,0.0321052729756765
SLC30A5,FALSE,0.0298643874915116
SLC30A9,TRUE,0.284263534628509
SLC35A3,FALSE,0.0544942902038401
SLC35A4,FALSE,0.164421295669423
SLC35C1,FALSE,0.0348748836574771
SLC35D2,FALSE,0.084806445788314
SLC35E2B,FALSE,0.0147708031967136
SLC36A1,FALSE,0.0105048015877511
SLC36A4,FALSE,0.0171712579719632
SLC38A2,FALSE,0.0137232082624451
SLC39A11,FALSE,0.124764058448666
SLC39A13,FALSE,0.0280993200188693
SLC39A3,FALSE,0.128074562787474
SLC44A1,FALSE,0.0264931027159283
SLC6A6,FALSE,0.00522379101089021
SLC7A7,FALSE,0.00278932368636508
SLC9A1,FALSE,0.0223768382674693
SLC9A3R1,FALSE,0.0551870274411475
SLC9A7,FALSE,0.0133634234982224
SLC9B2,FALSE,0.0261132813081183
SLFN12,FALSE,0.00951873127828659
SLIT2,FALSE,0.000487635922904961
SLU7,FALSE,0.0355441289479612
SMAD2,FALSE,0.0232980464332172
SMAD4,FALSE,0.0230554563218198
SMAD7,FALSE,0.00988772846807109
SMARCA4,FALSE,0.0313832942584526
SMARCD1,FALSE,0.020363363233478
SMG5,FALSE,0.0725125125023936
SMG6,FALSE,0.0145676369583092
SMIM15,FALSE,0.0778031964138076
SMIM8,FALSE,0.0811967034336134
SMOX,FALSE,0.00208095180448885
SMS,FALSE,0.198920931010852
SMU1,FALSE,0.0356915132499031
SMYD3,FALSE,0.105794517232971
SNAI1,FALSE,0.00241229391788196
SNAPC3,FALSE,0.0982668597947963
SNRNP200,FALSE,0.0304748608389538
SNRNP35,FALSE,0.193200967995269
SNRPD3,FALSE,0.237210393668689
SNRPE,FALSE,0.24033271003838
SNTB1,FALSE,0.0735646009012
SNTB2,FALSE,0.00660583804547394
SNX17,FALSE,0.11211330889681
SNX19,FALSE,0.10087910290842
SNX2,FALSE,0.046828064035243
SNX5,FALSE,0.172857241386011
SNX8,FALSE,0.0716789808384205
SOAT1,FALSE,0.0368170600987373
SOCS2,FALSE,0.0269535629884148
SOCS5,FALSE,0.0194272922719028
SOD2,TRUE,0.124370769629614
SOX11,FALSE,0.0124454958237313
SOX6,FALSE,0.0219619917260844
SPAG9,FALSE,0.00767339323187769
SPATA33,FALSE,0.019058679945317
SPATA7,FALSE,0.086792435613779
SPATS2L,FALSE,0.0333104603604999
SPC24,FALSE,0.26945030046264
SPC25,FALSE,0.0332689293154976
SPCS1,FALSE,0.240765528303394
SPEN,FALSE,0.00455064452021411
SPHKAP,FALSE,0.0066731485607466
SPIN2B,FALSE,0.0865393629380068
SPIN3,FALSE,0.0440667814110521
SPINT2,FALSE,0.000706838362515722
SPOCK1,FALSE,0.000514093278260427
SPSB2,FALSE,0.0276182825164853
SRD5A3,FALSE,0.0817450047568156
SRP14,FALSE,0.19330156112492
SRPK1,FALSE,0.0343597342384391
SRRD,FALSE,0.088686981650343
SRRM1,FALSE,0.0223564447643876
SRY,FALSE,0.00413309764887609
SS18L1,FALSE,0.0561985084721098
SSNA1,FALSE,0.113802776054709
SSR3,FALSE,0.232079835542365
SSX2IP,FALSE,0.010141831869242
ST3GAL2,FALSE,0.00982245938500137
ST3GAL4,FALSE,0.0248447966908992
ST6GALNAC3,FALSE,0.0123208245308437
STAC,FALSE,0.00220716385476622
STARD4,FALSE,0.0456881882055077
STARD9,FALSE,0.00171184978606502
STAT3,FALSE,0.0380874869172478
STC1,FALSE,0.00131067353555707
STC2,FALSE,0.000870452327639792
STEAP3,FALSE,0.149313494238096
STIL,FALSE,0.0286065765371516
STK10,FALSE,0.0033916500613911
STK25,FALSE,0.0635555556994453
STK35,FALSE,0.0237920002485993
STK38,FALSE,0.0257237816944951
STOM,TRUE,0.0103971680212677
STRN,FALSE,0.0169724036200811
STT3A,FALSE,0.0386368620939919
STUB1,FALSE,0.216191824567157
STX2,FALSE,0.00734846862204864
STX3,FALSE,0.0072891145574997
STYK1,FALSE,0.00753430231701803
SUB1,FALSE,0.249271907805561
SUDS3,FALSE,0.0279498755946604
SUFU,FALSE,0.0107193233560745
SUGP2,FALSE,0.0656641598158794
SUMO2,FALSE,0.0272184580904624
SUPT7L,FALSE,0.0878044840647133
SUPV3L1,TRUE,0.376392339568735
SURF4,FALSE,0.0518372688430698
SUSD5,FALSE,0.00123262639681385
SUV39H2,FALSE,0.0482445494050742
SVIL,FALSE,0.0154700438280144
SVIP,FALSE,0.0649756584086868
SYMPK,FALSE,0.0561057407001373
SYNC,FALSE,0.0126742665111119
SYNDIG1,FALSE,0.00236858035914145
SYNE3,FALSE,0.00468481414052721
SYNGR1,FALSE,0.00645227340965138
SYNJ1,FALSE,0.00643151975261739
SYTL3,FALSE,0.0203789988084197
TACSTD2,FALSE,5.14498076578131e-05
TADA3,FALSE,0.068867405621573
TAF10,FALSE,0.129179438313483
TAF1B,FALSE,0.0193163340326812
TAF3,FALSE,0.0139559351908385
TAF6L,FALSE,0.133908899496626
TANC2,FALSE,0.000449445665078044
TANK,FALSE,0.0377144855696184
TAP1,FALSE,0.0139879668186237
TAP2,FALSE,0.00785275432715202
TAPBP,FALSE,0.0327441132416773
TARS,TRUE,0.128673618686627
TAZ,FALSE,0.111145337572273
TBC1D2B,FALSE,0.00961757530205246
TBC1D8,FALSE,0.0100546321282007
TBC1D9,FALSE,0.00585836385768522
TBC1D9B,FALSE,0.0341334739862955
TBCC,FALSE,0.0631793901661921
TBCEL,FALSE,0.0203902189092451
TBRG1,FALSE,0.0405254673080109
TBRG4,TRUE,0.500902842755853
TBX1,FALSE,0.0018912433284705
TBX15,FALSE,0.00401152928417692
TBX18,FALSE,0.00142641411638367
TBX5,FALSE,0.000742742493962427
TBXA2R,FALSE,0.0105301749776076
TCEANC,FALSE,0.0359522885738714
TCF20,FALSE,0.00653481471111205
TCF7,FALSE,0.00270707740373141
TCF7L1,FALSE,0.00255549951622396
TCHP,TRUE,0.0314520329170775
TCTA,FALSE,0.21127564419268
TEF,FALSE,0.035674752139959
TELO2,FALSE,0.0900895019697962
TEX261,FALSE,0.0569373526519419
TEX30,FALSE,0.0681297917366887
TFAP2A,FALSE,0.000175523984168751
TFEB,FALSE,0.0396349181352386
TFG,FALSE,0.0957725631296525
TFPI,FALSE,0.00588135027010792
TFPI2,FALSE,0.192178879566505
TFPT,FALSE,0.071503857469099
TGFB2,FALSE,0.000745831429416948
TGFB3,FALSE,0.00284803433870586
TGFBR1,FALSE,0.00275697345029876
TGFBR3,FALSE,0.0070310055654896
THAP4,FALSE,0.146156886965454
THBS1,FALSE,0.00365237781982059
THOC3,FALSE,0.187978597241418
THOC5,FALSE,0.0418817849426295
THRB,FALSE,0.102142295823447
THUMPD2,FALSE,0.0330345067454504
THY1,FALSE,0.000565741163190774
TIA1,FALSE,0.0313167726977141
TIMM10,TRUE,0.523107488182518
TIMM21,TRUE,0.730750423797393
TIMM22,TRUE,0.155273932144689
TIMM50,TRUE,0.351494480374855
TIMM8B,TRUE,0.776814022868981
TIMMDC1,TRUE,0.477361395624631
TIMP2,FALSE,0.000297428784293388
TJP1,FALSE,0.0024216352785481
TLDC1,FALSE,0.0270634398477811
TM2D2,FALSE,0.0471092337206442
TM4SF1,FALSE,0.00353891645441398
TM7SF3,FALSE,0.0591867672921985
TMED2,FALSE,0.0521595201012196
TMED6,FALSE,0.110147115817373
TMEM104,FALSE,0.0418685854174842
TMEM106B,FALSE,0.0528910553800029
TMEM106C,FALSE,0.073628083651484
TMEM115,FALSE,0.04291433029589
TMEM120A,FALSE,0.557915323476302
TMEM121,FALSE,0.00161620769188655
TMEM123,FALSE,0.0111640163930735
TMEM132B,FALSE,0.00269159141085706
TMEM135,FALSE,0.184412923899628
TMEM147,FALSE,0.19860832229688
TMEM14B,FALSE,0.505915837186915
TMEM164,FALSE,0.249357305569774
TMEM175,FALSE,0.0626300934220548
TMEM179B,FALSE,0.0326696934083782
TMEM182,FALSE,0.543564618237007
TMEM183A,FALSE,0.0322335935436496
TMEM184B,FALSE,0.00618477305124641
TMEM192,FALSE,0.217200945756661
TMEM199,FALSE,0.0680800929519463
TMEM204,FALSE,0.00618937791492287
TMEM206,FALSE,0.00728727639158454
TMEM218,FALSE,0.117502922772412
TMEM254,FALSE,0.0827734558220675
TMEM39B,FALSE,0.0178862429087282
TMEM41A,FALSE,0.0505044043944222
TMEM41B,FALSE,0.0284649892539085
TMEM43,FALSE,0.00592040149753616
TMEM44,FALSE,0.0161356444108043
TMEM50B,FALSE,0.0530823801479797
TMEM59L,FALSE,0.00287988222948216
TMEM64,FALSE,0.0214022334585506
TMEM65,TRUE,0.0633718110022152
TMEM67,FALSE,0.0331803508194772
TMEM69,FALSE,0.39101368897933
TMEM87A,FALSE,0.0102825801500517
TMEM98,FALSE,0.00648692267220113
TMF1,FALSE,0.0130673705836922
TMSB15B,FALSE,0.00145595732374706
TMX1,FALSE,0.0306994038067131
TNFRSF14,FALSE,0.0265020089616236
TNFRSF1A,FALSE,0.0109507835326653
TNFSF18,FALSE,0.000525545179742108
TNIP1,FALSE,0.14330749309673
TNPO3,FALSE,0.0657302527183278
TNXB,FALSE,0.00198000123778035
TOM1L2,FALSE,0.0390840235097302
TOR1A,FALSE,0.0386501313372176
TOR1AIP1,FALSE,0.0145673986234246
TP53BP1,FALSE,0.0272094004215676
TPBG,FALSE,0.00576498963133431
TPCN2,FALSE,0.0785125092263327
TPGS2,FALSE,0.01814860115143
TPR,FALSE,0.0184330712594826
TPRG1L,FALSE,0.0508028312156013
TPT1,FALSE,0.152676425519889
TRA2B,FALSE,0.0434663673996137
TRABD,FALSE,0.0536795911898991
TRAPPC11,FALSE,0.0618621642542087
TRAPPC12,FALSE,0.0652234199641213
TRAPPC13,FALSE,0.124103057448126
TRH,FALSE,0.00141512634647438
TRIM2,FALSE,0.0168146140797398
TRIM22,FALSE,0.0059094345871915
TRIM33,FALSE,0.0113847012492584
TRIM5,FALSE,0.028388740695274
TRIM62,FALSE,0.00503139268210145
TRIM68,FALSE,0.0881086679622488
TRIT1,TRUE,0.0868771156508449
TRMT1L,FALSE,0.173763456021329
TRO,FALSE,0.00505884379730809
TRPV2,FALSE,0.0137337896294567
TSC22D3,FALSE,0.0209000189631893
TSC22D4,FALSE,0.0263058342277181
TSEN15,FALSE,0.125541520198715
TSEN54,FALSE,0.0183672638790559
TSHZ2,FALSE,0.000983995119653926
TSNARE1,FALSE,0.0292083802591002
TSNAX,FALSE,0.0995642353105403
TSPAN13,FALSE,0.0100308528359842
TSPAN17,FALSE,0.103870248608824
TSPAN4,FALSE,0.00467877767250493
TSPAN6,FALSE,0.0531891582294798
TSPYL2,FALSE,0.00619636839123852
TTC23,FALSE,0.0581150418044599
TTC27,FALSE,0.0945675963252078
TTC30B,FALSE,0.0437456572023655
TTC31,FALSE,0.0737347486728299
TTC5,FALSE,0.0563278848701839
TTC7B,FALSE,0.0263011872795674
TTF2,FALSE,0.0655441808876487
TTL,FALSE,0.0537794559150064
TTLL1,FALSE,0.0357253923240462
TTYH3,FALSE,0.00550678212503584
TUBD1,FALSE,0.0221321738199771
TUBE1,FALSE,0.0654200543535546
TUBGCP4,FALSE,0.0500032959773946
TUFM,TRUE,0.658108908872368
TULP3,FALSE,0.00702577965302134
TUSC3,FALSE,0.0381946371101194
TUT1,FALSE,0.108423856615324
TXNL4B,FALSE,0.0795683744529319
U2AF2,FALSE,0.0359656099288306
UAP1,FALSE,0.0467844077079866
UBA2,FALSE,0.0195844265149386
UBA3,FALSE,0.109212936048814
UBE2A,FALSE,0.129248104322032
UBE2D3,FALSE,0.0925040926327984
UBE2D4,FALSE,0.136481885724424
UBE2V2,FALSE,0.0927805344364712
UBE4A,FALSE,0.0157905103822967
UBFD1,FALSE,0.0985370678683003
UBIAD1,FALSE,0.0982659175873831
UBL4B,FALSE,0.00938526973020027
UBL5,FALSE,0.371231044636807
UBN1,FALSE,0.0354667690409905
UBQLN2,FALSE,0.06338014312115
UBR2,FALSE,0.0558696531547458
UBXN4,FALSE,0.0354653300376657
UCHL1,FALSE,0.0128622310733966
UCK2,FALSE,0.0709325931073005
UFL1,FALSE,0.0695481341654264
UFSP1,FALSE,0.400965152399156
UHMK1,FALSE,0.0901517379672799
UHRF1BP1,FALSE,0.0668069408574604
ULK2,FALSE,0.0106495196039999
UNC45A,FALSE,0.0210711875846931
UPF2,FALSE,0.0228215399244461
UPF3A,FALSE,0.0442949371526939
UQCRC2,TRUE,0.899752721793997
USE1,FALSE,0.12074957072709
USF2,FALSE,0.0697586241232595
USP13,FALSE,0.154848837630451
USP15,FALSE,0.0701683215379636
USP22,FALSE,0.0420834743940595
USP32,FALSE,0.0226896159433527
USP33,FALSE,0.046689459637769
USP34,FALSE,0.00905264895385139
USP35,FALSE,0.0306729543586043
USP36,FALSE,0.012381331441777
USP40,FALSE,0.0902724912605042
USP42,FALSE,0.0120446933190485
USP9Y,FALSE,0.000567275892599204
UTP14A,FALSE,0.095633755341067
UTP15,FALSE,0.163883500420361
UTP3,FALSE,0.0773509507776189
UTP6,FALSE,0.0520243949151445
UTRN,FALSE,0.00525329008795726
UVRAG,FALSE,0.0478972323185699
VAMP4,FALSE,0.0126124803410001
VANGL1,FALSE,0.024785022218402
VAPB,FALSE,0.102386963283915
VARS2,TRUE,0.255021870244789
VASH1,FALSE,0.00197418974421488
VCAN,FALSE,0.000200341673234617
VCP,FALSE,0.177331296845848
VDAC3,TRUE,0.541135008684325
VEGFB,FALSE,0.149401352688916
VEZT,FALSE,0.0576916478842382
VGLL3,FALSE,0.000566360502354308
VGLL4,FALSE,0.009811297455775
VIT,FALSE,0.00264538061734563
VLDLR,FALSE,0.0182143383618485
VPS11,FALSE,0.0432366612045953
VPS45,FALSE,0.129939169197639
VPS51,FALSE,0.0879745784305888
VWA1,FALSE,0.00606163390328459
WASF2,FALSE,0.00685909820674538
WASF3,FALSE,0.00844740830332203
WDFY2,FALSE,0.00981993826356958
WDR18,FALSE,0.385374865843787
WDR3,FALSE,0.133368903955932
WDR33,FALSE,0.030152629728192
WDR4,FALSE,0.108039440389402
WDR43,FALSE,0.0489537648971748
WDR46,FALSE,0.0576808752756451
WDR47,FALSE,0.0096363696247176
WDR5,FALSE,0.0591047942402387
WDR54,FALSE,0.0106538865846314
WDR55,FALSE,0.065184316220426
WDR70,FALSE,0.0626810286975861
WDR73,FALSE,0.0642283326174814
WDR75,FALSE,0.0752309271207229
WDR76,FALSE,0.00582548027293416
WIPI1,FALSE,0.18506378292164
WISP1,FALSE,0.00594507055377941
WNT2B,FALSE,0.00956471130201385
WSB2,FALSE,0.105267802299617
WTIP,FALSE,0.00582669274899128
XIAP,FALSE,0.0205856372226342
XPNPEP1,FALSE,0.0783180419991398
XPO7,FALSE,0.0232740178965451
XRCC2,FALSE,0.0257615286273646
YIF1A,FALSE,0.166060110766596
YIF1B,FALSE,0.150983569669628
YIPF2,FALSE,0.0330474049814687
YIPF4,FALSE,0.0491905429311628
YPEL3,FALSE,0.00934197124123348
YRDC,FALSE,0.0584436407661596
YTHDC1,FALSE,0.013749338606087
YTHDF1,FALSE,0.0336634299031958
YTHDF2,FALSE,0.087698931285712
YWHAH,FALSE,0.0150065735522911
YY1,FALSE,0.0213344065201111
ZBTB14,FALSE,0.0316466782143069
ZBTB18,FALSE,0.029022256513279
ZBTB39,FALSE,0.0192217657816464
ZBTB5,FALSE,0.0192321704213352
ZC3HAV1L,FALSE,0.00677262484774863
ZCCHC9,FALSE,0.105065831519317
ZDBF2,FALSE,0.0173359730954711
ZDHHC14,FALSE,0.0121704317407255
ZDHHC18,FALSE,0.012049993633168
ZDHHC24,FALSE,0.123659925445294
ZDHHC3,FALSE,0.0732108885479961
ZDHHC6,FALSE,0.0796903166602401
ZDHHC7,FALSE,0.0671203905849927
ZFAND2A,FALSE,0.0192446473330857
ZFAT,FALSE,0.0664585763872307
ZFP1,FALSE,0.024333858221539
ZFP30,FALSE,0.0177665448709896
ZFP37,FALSE,0.00493187505798384
ZFP41,FALSE,0.0441862154087007
ZFP69B,FALSE,0.0177398265408769
ZFPL1,FALSE,0.0857052643960306
ZFR,FALSE,0.0307616807860049
ZFYVE1,FALSE,0.0365740946256336
ZFYVE16,FALSE,0.0176802759865225
ZFYVE26,FALSE,0.0369829015372617
ZFYVE9,FALSE,0.0202081474519926
ZHX3,FALSE,0.0384937804893967
ZIC4,FALSE,0.000558300686753938
ZKSCAN2,FALSE,0.0383414602506236
ZKSCAN3,FALSE,0.0980147893823898
ZMAT2,FALSE,0.108721244688615
ZMYM5,FALSE,0.0276891705292446
ZNF101,FALSE,0.0113673257125585
ZNF117,FALSE,0.0289955815011773
ZNF121,FALSE,0.0473776879733332
ZNF124,FALSE,0.0267252485860153
ZNF134,FALSE,0.0204426834047066
ZNF142,FALSE,0.0218595623637119
ZNF18,FALSE,0.0965388216354365
ZNF180,FALSE,0.0366337562335207
ZNF184,FALSE,0.0146509000032591
ZNF205,FALSE,0.0485392068374382
ZNF213,FALSE,0.0278110604711054
ZNF22,FALSE,0.0462739897734703
ZNF221,FALSE,0.00407949756355304
ZNF222,FALSE,0.0446295991058532
ZNF232,FALSE,0.033746107750891
ZNF250,FALSE,0.0226269240844706
ZNF264,FALSE,0.0163322879797776
ZNF266,FALSE,0.0191151456561107
ZNF276,FALSE,0.0282788197438031
ZNF277,FALSE,0.0751087082141352
ZNF280C,FALSE,0.00833882639252078
ZNF280D,FALSE,0.0291241597631631
ZNF285,FALSE,0.0783900240544966
ZNF286B,FALSE,0.00541435628203937
ZNF300,FALSE,0.00415106566249958
ZNF317,FALSE,0.0264764435052288
ZNF322,FALSE,0.0108609239116576
ZNF324,FALSE,0.0218231023502385
ZNF324B,FALSE,0.0432657943582358
ZNF331,FALSE,0.00170893242279132
ZNF345,FALSE,0.0569238577387341
ZNF346,FALSE,0.0332210882923614
ZNF35,FALSE,0.0248948649502483
ZNF354B,FALSE,0.0255589648438597
ZNF382,FALSE,0.0304279487928343
ZNF394,FALSE,0.0382410201168093
ZNF408,FALSE,0.0573651509738812
ZNF426,FALSE,0.0224397849821842
ZNF440,FALSE,0.0320005264109724
ZNF441,FALSE,0.0515931132061965
ZNF45,FALSE,0.0281400959406698
ZNF48,FALSE,0.0276178263678131
ZNF493,FALSE,0.0533128797119443
ZNF502,FALSE,0.0331154153989751
ZNF507,FALSE,0.0264455368898524
ZNF516,FALSE,0.0133531864318719
ZNF517,FALSE,0.0377804472478368
ZNF527,FALSE,0.0500438995141967
ZNF536,FALSE,0.00191647514966518
ZNF543,FALSE,0.00788135958021253
ZNF554,FALSE,0.0577440434705956
ZNF558,FALSE,0.0288717826319155
ZNF575,FALSE,0.0500930154297684
ZNF576,FALSE,0.101689856879571
ZNF583,FALSE,0.0306683623129668
ZNF589,FALSE,0.0207932649419177
ZNF593,FALSE,0.254633827057501
ZNF596,FALSE,0.050985766203175
ZNF623,FALSE,0.0181338970347594
ZNF628,FALSE,0.0236262269737821
ZNF638,FALSE,0.0390435573724914
ZNF646,FALSE,0.0230002541133299
ZNF654,FALSE,0.0288949352284957
ZNF667,FALSE,0.00343080340811224
ZNF674,FALSE,0.0372853443682215
ZNF688,FALSE,0.111094569410974
ZNF714,FALSE,0.0126228432918432
ZNF736,FALSE,0.0268126405151324
ZNF740,FALSE,0.0347882125278983
ZNF746,FALSE,0.0168267387906347
ZNF75D,FALSE,0.0348894482306
ZNF764,FALSE,0.104238777645458
ZNF77,FALSE,0.0608649028872115
ZNF775,FALSE,0.0542887021557303
ZNF783,FALSE,0.0108936677494516
ZNF787,FALSE,0.115091995779801
ZNF791,FALSE,0.0307607086990888
ZNF81,FALSE,0.0252579264622736
ZNF814,FALSE,0.0238921644337189
ZNF816,FALSE,0.0266652139368198
ZNF83,FALSE,0.0270857506347098
ZNF880,FALSE,0.0275692916548735
ZNF93,FALSE,0.00519250014353383
ZSCAN20,FALSE,0.0475699315630268
ZSCAN25,FALSE,0.0166937827902047
ZSWIM6,FALSE,0.00557240512358906
ZW10,FALSE,0.0809032918947955
ZXDB,FALSE,0.0255795501318123
